Laufzettel,Datum,Nummer,Einverständnis Hausordnung,Reparaturkategorie,Gerät/Gegenstand,Gerät/Gegenstand-raw,Stromversorgung,Marke,Baujahr,Defekt,Defekt-raw,repariert von mir,repariert mit Hilfe,Fehler gefunden,Ergebnis,Ergebnis Detail,Beschreibung,Benutzungsverbot,Unterschrift Benutzungsverbot,Werbung durch,Feedback,Name,Alter,Alterskategorie,Geschlecht,E-Mail,Telefon,Adresse,Newsletter Repair Café,Newsletter Verein,Unterschrift Datenverarbeitung
,,,,,,,,,,,,,,,,,,,,,,,,,,,,,,,
repaircafe.org,DATE,INT,TRUE,,Elektro Sonstiges,STRING,230 V,Abacom,INT,Bauteil defekt,STRING,TRUE,TRUE,TRUE,gelungen,hat noch Garantie,STRING,TRUE,TRUE,Empfehlung,STRING,TRUE,INT,0-20,m,TRUE,TRUE,TRUE,TRUE,TRUE,TRUE
reparatur-initiativen.de,NA,NA,FALSE,,Haushaltsgeräte,,mit Netzteil,ABB,NA,Displayschaden,NA,NULL,FALSE,FALSE,teilweise gelungen,Teilnutzung möglich,NA,FALSE,FALSE,Zeitung,NA,NA,NA,21-40,w,NA,NA,NA,FALSE,FALSE,FALSE
reparatur-initiativen.de ohne Personendaten,,,NULL,,Unterhaltungselektronik,,Akku,ABUS,NULL,Fortsetzung,,,NA,NA,vertagt,Hilfsmittel oder Zubehör fehlt,,NULL,NULL,Radio,NULL,NULL,NULL,41-60,d,NULL,NULL,NULL,NULL,NULL,NULL
makerspace-gt,,,,,Computer,,Batterie,AccuCell,,geht selbst wieder aus,,,NULL,NULL,nicht erfolgt,Ersatzteilbesorgung durch mich,,,,Repair Café,,,,61+,NA,,,,,,
reparatur-initiativen.de online,,,,,Metallbearbeitung,,ohne Kabel,AccuLux,,Kabelbruch,,,,,abgebrochen,Ersatzteilbesorgung durch Repair Café,,,,Zeitung (NW),,,,NA,NULL,,,,,,
makerspace-gt Forum,,,,,Textilien,,NA,AccuPower,,kein Ton,,,,,nicht möglich,Gerät nicht komplett,,,,Zeitung (Glocke),,,,NULL,,,,,,,
,,,,,Fahrrad,,,Acer,,keine Funktion,,,,,NA,Reparaturinformationen nicht verfügbar,,,,Stadtbibliothek,,,,,,,,,,,
,,,,,Möbel (Holzbearbeitung),,,ACME,,Kurzschluss,,,,,,zu lange Wartezeit,,,,Internet,,,,,,,,,,,
,,,,,Upcycling/Basteln,,,Addimat,,lädt nicht/schnell leer,,,,,,Gesamtaufwand zu hoch,,,,,,,,,,,,,,,
,,,,,Handy / Smartphone / Tablet,,,Adler,,Laufwerk defekt,,,,,,Abnutzung zu groß,,,,,,,,,,,,,,,
,,,,,Leder,,,Adobe,,Mechanik defekt,,,,,,Öffnung des Gerätes nicht möglich,,,,,,,,,,,,,,,
,,,,,Schmuck,,,Adonit,,Netzteil defekt,,,,,,Ersatzteil zu teuer,,,,,,,,,,,,,,,
,,,,Elektro Sonstiges,Lampe,,,AEE,,Papierstau,,,,,,Ersatzteil nicht erhältlich,,,,,,,,,,,,,,,
,,,,Elektro Sonstiges,Fön,,,AEG,,Schalter defekt,,,,,,NA,,,,,,,,,,,,,,,
,,,,Haushaltsgeräte,Wasserkocher,,,AEI,,Sendereinstellung defekt,,,,,,,,,,,,,,,,,,,,,
,,,,Haushaltsgeräte,Staubsauger,,,Aerosoft,,Stecker/Buchse defekt,,,,,,,,,,,,,,,,,,,,,
,,,,Unterhaltungselektronik,Fernseher,,,Aerotec,,Teil gebrochen,,,,,,,,,,,,,,,,,,,,,
,,,,Unterhaltungselektronik,Radio,,,AgfaPhoto,,undicht,,,,,,,,,,,,,,,,,,,,,
,,,,Computer,Desktopcomputer,,,Agfeo Telekommunikation,,ungewöhnliche Geräusche,,,,,,,,,,,,,,,,,,,,,
,,,,Computer,Laptop,,,Akitio,,unzureichende Funktion,,,,,,,,,,,,,,,,,,,,,
,,,,Handy / Smartphone / Tablet,Handy,,,Akku Power,,unzureichende Leistung,,,,,,,,,,,,,,,,,,,,,
,,,,Handy / Smartphone / Tablet,Smartphone,,,Alcatel,,sonstiges,,,,,,,,,,,,,,,,,,,,,
,,,,Handy / Smartphone / Tablet,Tablet,,,Allnet,,NA,,,,,,,,,,,,,,,,,,,,,
,,,,Elektro Sonstiges,Lockenstab,,,AlphaWire,,,,,,,,,,,,,,,,,,,,,,,
,,,,,Zahnbürste,,,Altera,,,,,,,,,,,,,,,,,,,,,,,
,,,,Elektro Sonstiges,Musikinstrument,,,Alutec,,,,,,,,,,,,,,,,,,,,,,,
,,,,Elektro Sonstiges,Digitalkamera,,,amazon,,,,,,,,,,,,,,,,,,,,,,,
,,,,Elektro Sonstiges,Nähmaschine,,,Amica,,,,,,,,,,,,,,,,,,,,,,,
,,,,Elektro Sonstiges,Spielzeug,,,Analog Devices,,,,,,,,,,,,,,,,,,,,,,,
,,,,Elektro Sonstiges,Telefon,,,Antari,,,,,,,,,,,,,,,,,,,,,,,
,,,,Haushaltsgeräte,Standmixer,,,APC by Schneider Electric,,,,,,,,,,,,,,,,,,,,,,,
,,,,Haushaltsgeräte,Stabmixer / Pürierstab,,,Apollo Ultrasonic,,,,,,,,,,,,,,,,,,,,,,,
,,,,Haushaltsgeräte,Handmixer,,,Apple,,,,,,,,,,,,,,,,,,,,,,,
,,,,Haushaltsgeräte,Waffeleisen,,,AquaLaser,,,,,,,,,,,,,,,,,,,,,,,
,,,,Haushaltsgeräte,Kaffeemühle,,,Arcolectric,,,,,,,,,,,,,,,,,,,,,,,
,,,,Haushaltsgeräte,Saftpresse,,,Arduino,,,,,,,,,,,,,,,,,,,,,,,
,,,,Haushaltsgeräte,Küchenmaschine,,,Arebos,,,,,,,,,,,,,,,,,,,,,,,
,,,,Haushaltsgeräte,Kaffeemaschine,,,Ariete,,,,,,,,,,,,,,,,,,,,,,,
,,,,Haushaltsgeräte,Kaffeevollautomat,,,Arnold Elektrotechnik,,,,,,,,,,,,,,,,,,,,,,,
,,,,Haushaltsgeräte,Toaster,,,Asus,,,,,,,,,,,,,,,,,,,,,,,
,,,,Unterhaltungselektronik,Kassettenrekorder,,,Asus,,,,,,,,,,,,,,,,,,,,,,,
,,,,Unterhaltungselektronik,Videorekorder,,,Atari,,,,,,,,,,,,,,,,,,,,,,,
,,,,Unterhaltungselektronik,DVD-Player,,,ATE Electronics,,,,,,,,,,,,,,,,,,,,,,,
,,,,Unterhaltungselektronik,CD-Player,,,Atika,,,,,,,,,,,,,,,,,,,,,,,
,,,,Unterhaltungselektronik,HiFi-Musik-Anlage,,,Audiosonic,,,,,,,,,,,,,,,,,,,,,,,
,,,,Unterhaltungselektronik,Walkman,,,Avira,,,,,,,,,,,,,,,,,,,,,,,
,,,,Unterhaltungselektronik,Discman,,,AVM,,,,,,,,,,,,,,,,,,,,,,,
,,,,Unterhaltungselektronik,Mp3-Player,,,Babyliss,,,,,,,,,,,,,,,,,,,,,,,
,,,,Unterhaltungselektronik,Lautsprecher(boxen),,,Basetech,,,,,,,,,,,,,,,,,,,,,,,
,,,,Unterhaltungselektronik,Spielkonsole,,,Batavus,,,,,,,,,,,,,,,,,,,,,,,
,,,,Unterhaltungselektronik,Plattenspieler,,,Bauknecht,,,,,,,,,,,,,,,,,,,,,,,
,,,,Unterhaltungselektronik,Jukebox,,,BEKO,,,,,,,,,,,,,,,,,,,,,,,
,,,,Computer,Drucker,,,Bellini,,,,,,,,,,,,,,,,,,,,,,,
,,,,Computer,Tastatur,,,Benning,,,,,,,,,,,,,,,,,,,,,,,
,,,,Computer,Computermaus,,,Bestron,,,,,,,,,,,,,,,,,,,,,,,
,,,,Unterhaltungselektronik,Fernbedienung,,,Beurer,,,,,,,,,,,,,,,,,,,,,,,
,,,,Computer,Scanner,,,Bicycles,,,,,,,,,,,,,,,,,,,,,,,
,,,,Handy / Smartphone / Tablet,E-Book-Reader,,,Bicyle Gear,,,,,,,,,,,,,,,,,,,,,,,
,,,,Textilien,Kleidungsstück,,,Bike Manufaktur,,,,,,,,,,,,,,,,,,,,,,,
,,,,Textilien,Wohntextilie,,,BIRIA,,,,,,,,,,,,,,,,,,,,,,,
,,,,Textilien,Tasche / Koffer,,,Bissell,,,,,,,,,,,,,,,,,,,,,,,
,,,,Leder,Bekleidung / Kleidungsstück,,,Black & Decker,,,,,,,,,,,,,,,,,,,,,,,
,,,,Leder,Tasche / Koffer,,,BlackBerry,,,,,,,,,,,,,,,,,,,,,,,
,,,,Möbel (Holzbearbeitung),Möbelstück,,,Blau.de,,,,,,,,,,,,,,,,,,,,,,,
,,,,Möbel (Holzbearbeitung),Spielzeug,,,Blaupunkt,,,,,,,,,,,,,,,,,,,,,,,
,,,,Unterhaltungselektronik,Mikrofon,,,Bocas,,,,,,,,,,,,,,,,,,,,,,,
,,,,Unterhaltungselektronik,Kopfhörer,,,Bomann,,,,,,,,,,,,,,,,,,,,,,,
,,,,Fahrrad,Reifen,,,Bontrager,,,,,,,,,,,,,,,,,,,,,,,
,,,,Fahrrad,Beleuchtung,,,Bort,,,,,,,,,,,,,,,,,,,,,,,
,,,,Fahrrad,Bremsen,,,Bosch,,,,,,,,,,,,,,,,,,,,,,,
,,,,Fahrrad,Rahmen,,,Braun,,,,,,,,,,,,,,,,,,,,,,,
,,,,Fahrrad,Gangschaltung,,,Brita,,,,,,,,,,,,,,,,,,,,,,,
,,,,Fahrrad,Antrieb,,,Brother,,,,,,,,,,,,,,,,,,,,,,,
,,,,Haushaltsgeräte,Bügeleisen,,,Bulls,,,,,,,,,,,,,,,,,,,,,,,
,,,,,Waage,,,Bullseye,,,,,,,,,,,,,,,,,,,,,,,
,,,,Haushaltsgeräte,Entsafter,,,BVC,,,,,,,,,,,,,,,,,,,,,,,
,,,,Haushaltsgeräte,Brotschneidemaschine,,,cablefix,,,,,,,,,,,,,,,,,,,,,,,
,,,,Haushaltsgeräte,Milchaufschäumer,,,CAD Audio,,,,,,,,,,,,,,,,,,,,,,,
,,,,Haushaltsgeräte,Eierkocher,,,Cannondale,,,,,,,,,,,,,,,,,,,,,,,
,,,,Haushaltsgeräte,Glätteisen,,,Canon,,,,,,,,,,,,,,,,,,,,,,,
,,,,Elektro Sonstiges,Heizlüfter,,,Carat Electronics,,,,,,,,,,,,,,,,,,,,,,,
,,,,Elektro Sonstiges,Elektrorasierer,,,Carbotec,,,,,,,,,,,,,,,,,,,,,,,
,,,,Elektro Sonstiges,Heizdecke / Heizkissen,,,Carrera,,,,,,,,,,,,,,,,,,,,,,,
,,,,Elektro Sonstiges,Bohrmaschine,,,Carver,,,,,,,,,,,,,,,,,,,,,,,
,,,,Elektro Sonstiges,Akkuschrauber,,,Casdon,,,,,,,,,,,,,,,,,,,,,,,
,,,,Elektro Sonstiges,Wecker,,,Casio,,,,,,,,,,,,,,,,,,,,,,,
,,,,Unterhaltungselektronik,Radiowecker,,,Cervélo,,,,,,,,,,,,,,,,,,,,,,,
,,,,Haushaltsgeräte,Uhr,,,Checker Pig,,,,,,,,,,,,,,,,,,,,,,,
,,,,Unterhaltungselektronik,Autoradio,,,Cisco,,,,,,,,,,,,,,,,,,,,,,,
,,,,Elektro Sonstiges,Videokamera,,,Citizen Electronics,,,,,,,,,,,,,,,,,,,,,,,
,,,,Handy / Smartphone / Tablet,Navigationsgerät,,,Clatronic,,,,,,,,,,,,,,,,,,,,,,,
,,,,Unterhaltungselektronik,Receiver,,,Clean Maxx,,,,,,,,,,,,,,,,,,,,,,,
,,,,Leder,Gürtel,,,Cleanfix,,,,,,,,,,,,,,,,,,,,,,,
,,,,Textilien,Schirm,,,Cobra Swiss,,,,,,,,,,,,,,,,,,,,,,,
,,,,Computer,Bildschirm,,,Codemasters,,,,,,,,,,,,,,,,,,,,,,,
,,,,Haushaltsgeräte,Mikrowelle,,,Columbus,,,,,,,,,,,,,,,,,,,,,,,
,,,,Elektro Sonstiges,Taschenlampe,,,COMAG,,,,,,,,,,,,,,,,,,,,,,,
,,,,Elektro Sonstiges,Venenwalker,,,Comatec,,,,,,,,,,,,,,,,,,,,,,,
,,,,Elektro Sonstiges,Heckenschere,,,Comet,,,,,,,,,,,,,,,,,,,,,,,
,,,,Elektro Sonstiges,Sonstiges,,,Compel,,,,,,,,,,,,,,,,,,,,,,,
,,,,Fahrrad,Sonstiges,,,Concorde,,,,,,,,,,,,,,,,,,,,,,,
,,,,Elektro Sonstiges,Wetterstation,,,Conitec,,,,,,,,,,,,,,,,,,,,,,,
,,,,Elektro Sonstiges,Blutdruckmessgerät,,,ConiuGo,,,,,,,,,,,,,,,,,,,,,,,
,,,,Unterhaltungselektronik,Diabetrachter,,,Conrad,,,,,,,,,,,,,,,,,,,,,,,
,,,,Elektro Sonstiges,Autobatterie-Ladegerät,,,Contoura,,,,,,,,,,,,,,,,,,,,,,,
,,,,Schmuck,Brille,,,Conway,,,,,,,,,,,,,,,,,,,,,,,
,,,,,Akku,,,CSL Computer,,,,,,,,,,,,,,,,,,,,,,,
,,,,Elektro Sonstiges,Bügelstation,,,Cyberlink,,,,,,,,,,,,,,,,,,,,,,,
,,,,Haushaltsgeräte,Minibackofen,,,CyberPower,,,,,,,,,,,,,,,,,,,,,,,
,,,,Haushaltsgeräte,Garten,,,Cyclewolf,,,,,,,,,,,,,,,,,,,,,,,
,,,,,Haushaltsgroßgeräte,,,Cyco Curtis,,,,,,,,,,,,,,,,,,,,,,,
,,,,Haushaltsgroßgeräte,Waschmaschine,,,D-Link,,,,,,,,,,,,,,,,,,,,,,,
,,,,Haushaltsgroßgeräte,Kühlgerät,,,D&S,,,,,,,,,,,,,,,,,,,,,,,
,,,,Haushaltsgroßgeräte,Herd,,,Dancelli,,,,,,,,,,,,,,,,,,,,,,,
,,,,Haushaltsgroßgeräte,Geschirrspüler,,,Dell,,,,,,,,,,,,,,,,,,,,,,,
,,,,Haushaltsgroßgeräte,Kühl-Gefriergerät,,,DeLonghi,,,,,,,,,,,,,,,,,,,,,,,
,,,,Haushaltsgroßgeräte,Dunstabzugshaube,,,Delta Electronics,,,,,,,,,,,,,,,,,,,,,,,
,,,,Haushaltsgroßgeräte,Kochfeld,,,deTOX,,,,,,,,,,,,,,,,,,,,,,,
,,,,Haushaltsgroßgeräte,Backofen,,,Diamant,,,,,,,,,,,,,,,,,,,,,,,
,,,,Haushaltsgroßgeräte,Trockner,,,Dirt Devil,,,,,,,,,,,,,,,,,,,,,,,
,,,,Haushaltsgroßgeräte,Gasherd,,,Disney,,,,,,,,,,,,,,,,,,,,,,,
,,,,Haushaltsgroßgeräte,Waschtrockner,,,DISPLEX,,,,,,,,,,,,,,,,,,,,,,,
,,,,Haushaltsgroßgeräte,Klimagerät,,,DMAX,,,,,,,,,,,,,,,,,,,,,,,
,,,,Haushaltsgroßgeräte,Gefriergerät,,,Dolmar,,,,,,,,,,,,,,,,,,,,,,,
,,,,Haushaltsgroßgeräte,Gaskochfeld,,,Dometic,,,,,,,,,,,,,,,,,,,,,,,
,,,,Haushaltsgroßgeräte,Glaskochfeld,,,Domo,,,,,,,,,,,,,,,,,,,,,,,
,,,,Haushaltsgeräte,Dampfgarer,,,Donau Elektronik,,,,,,,,,,,,,,,,,,,,,,,
,,,,Elektro Sonstiges,Wechselrichter,,,Dremel,,,,,,,,,,,,,,,,,,,,,,,
,,,,Haushaltsgroßgeräte,Fitnessgerät,,,Dunlop,,,,,,,,,,,,,,,,,,,,,,,
,,,,Haushaltsgeräte,Garten,,,Durable,,,,,,,,,,,,,,,,,,,,,,,
,,,,Elektro Sonstiges,Radio,,,Duracell,,,,,,,,,,,,,,,,,,,,,,,
,,,,Haushaltsgeräte,Einweckkocher,,,Duracraft,,,,,,,,,,,,,,,,,,,,,,,
,,,,Haushaltsgeräte,Kochthermometer,,,Duronic,,,,,,,,,,,,,,,,,,,,,,,
,,,,Elektro Sonstiges,Massagegerät,,,Dynamics,,,,,,,,,,,,,,,,,,,,,,,
,,,,Elektro Sonstiges,Rasenmäher,,,Dynamite,,,,,,,,,,,,,,,,,,,,,,,
,,,,Metallbearbeitung,Messer und Scheren schärfen/schleifen,,,dyson,,,,,,,,,,,,,,,,,,,,,,,
,,,,Haushaltsgeräte,Schleuder,,,EA Elektro-Automatik,,,,,,,,,,,,,,,,,,,,,,,
,,,,Fahrrad,Herrenfahrrad,,,EA Games,,,,,,,,,,,,,,,,,,,,,,,
,,,,Fahrrad,Damenfahrrad,,,Easypix,,,,,,,,,,,,,,,,,,,,,,,
,,,,Elektro Sonstiges,Garten,,,Eberle,,,,,,,,,,,,,,,,,,,,,,,
,,,,Haushaltsgeräte,Induktionsplatte,,,ECG,,,,,,,,,,,,,,,,,,,,,,,
,,,,Haushaltsgeräte,Dampfkochtopf,,,ECO-Light,,,,,,,,,,,,,,,,,,,,,,,
,,,,Haushaltsgeräte,Teesieb,,,Ecoline,,,,,,,,,,,,,,,,,,,,,,,
,,,,Haushaltsgeräte,Greifzange,,,Ecovacs Robotics,,,,,,,,,,,,,,,,,,,,,,,
,,,,Elektro Sonstiges,Körperpflege,,,Einhell,,,,,,,,,,,,,,,,,,,,,,,
,,,,Elektro Sonstiges,LED-Licht/LED-Leuchte,,,Eio,,,,,,,,,,,,,,,,,,,,,,,
,,,,Haushaltsgeräte,Wanderstöcke,,,ELAC,,,,,,,,,,,,,,,,,,,,,,,
,,,,Haushaltsgeräte,Stuhl,,,ELAN,,,,,,,,,,,,,,,,,,,,,,,
,,,,Haushaltsgeräte,Grill,,,Elco,,,,,,,,,,,,,,,,,,,,,,,
,,,,Unterhaltungselektronik,Keyboard,,,Electra,,,,,,,,,,,,,,,,,,,,,,,
,,,,Elektro Sonstiges,Verstärker,,,Electric Power,,,,,,,,,,,,,,,,,,,,,,,
,,,,Haushaltsgeräte,Espressokocher,,,Electro Voice,,,,,,,,,,,,,,,,,,,,,,,
,,,,Elektro Sonstiges,Schleifer,,,Electrolube,,,,,,,,,,,,,,,,,,,,,,,
,,,,Elektro Sonstiges,Multimeter,,,Electrolux,,,,,,,,,,,,,,,,,,,,,,,
,,,,Elektro Sonstiges,Kreissäge,,,Electronic Arts,,,,,,,,,,,,,,,,,,,,,,,
,,,,Elektro Sonstiges,Heizung,,,Electrosoft,,,,,,,,,,,,,,,,,,,,,,,
,,,,Textilien,Jacke,,,EMAX,,,,,,,,,,,,,,,,,,,,,,,
,,,,Haushaltsgeräte,Spieluhr,,,EPH Elektronik,,,,,,,,,,,,,,,,,,,,,,,
,,,,Textilien,Puppe,,,Epple,,,,,,,,,,,,,,,,,,,,,,,
,,,,Elektro Sonstiges,Bilderrahmen,,,Epson,,,,,,,,,,,,,,,,,,,,,,,
,,,,Elektro Sonstiges,Werkzeug,,,Ergotron,,,,,,,,,,,,,,,,,,,,,,,
,,,,Elektro Sonstiges,Scheibenwischer,,,Esotec,,,,,,,,,,,,,,,,,,,,,,,
,,,,Elektro Sonstiges,Kabeltrommel,,,Eufy,,,,,,,,,,,,,,,,,,,,,,,
,,,,Elektro Sonstiges,Lichterkette,,,Eurolite,,,,,,,,,,,,,,,,,,,,,,,
,,,,Elektro Sonstiges,Babyphone,,,Eurotronic,,,,,,,,,,,,,,,,,,,,,,,
,,,,Haushaltsgeräte,Dekoration,,,Evatronic,,,,,,,,,,,,,,,,,,,,,,,
,,,,Elektro Sonstiges,Spannungsmesser,,,eVictoria,,,,,,,,,,,,,,,,,,,,,,,
,,,,Elektro Sonstiges,Drehmel,,,EVOline,,,,,,,,,,,,,,,,,,,,,,,
,,,,Elektro Sonstiges,Schalter,,,Evolis,,,,,,,,,,,,,,,,,,,,,,,
,,,,Haushaltsgeräte,Schraubstock,,,Evoluent,,,,,,,,,,,,,,,,,,,,,,,
,,,,Fahrrad,Fahrradlicht,,,Evolution,,,,,,,,,,,,,,,,,,,,,,,
,,,,Computer,Netzteil,,,ewent by Eminent,,,,,,,,,,,,,,,,,,,,,,,
,,,,Haushaltsgeräte,Kerzenhalter,,,EWON,,,,,,,,,,,,,,,,,,,,,,,
,,,,Handy / Smartphone / Tablet,Display,,,Excelsior,,,,,,,,,,,,,,,,,,,,,,,
,,,,Haushaltsgeräte,Feuerzeug,,,Exte,,,,,,,,,,,,,,,,,,,,,,,
,,,,Haushaltsgeräte,Seifenspender,,,Extech,,,,,,,,,,,,,,,,,,,,,,,
,,,,Computer,Beamer,,,F-Tronic,,,,,,,,,,,,,,,,,,,,,,,
,,,,Elektro Sonstiges,Stichsäge,,,FabConstruct,,,,,,,,,,,,,,,,,,,,,,,
,,,,Unterhaltungselektronik,Musikanlage,,,Faber Kabel,,,,,,,,,,,,,,,,,,,,,,,
,,,,Unterhaltungselektronik,Spulentonbandgerät,,,FairPhone,,,,,,,,,,,,,,,,,,,,,,,
,,,,Computer,Tablett,,,Fakir,,,,,,,,,,,,,,,,,,,,,,,
,,,,Elektro Sonstiges,Metronom,,,Falter,,,,,,,,,,,,,,,,,,,,,,,
,,,,Textilien,Schuhe,,,Feinwerk,,,,,,,,,,,,,,,,,,,,,,,
,,,,Haushaltsgeräte,Kettensäge,,,Festool,,,,,,,,,,,,,,,,,,,,,,,
,,,,Elektro Sonstiges,Kabel,,,Fischer,,,,,,,,,,,,,,,,,,,,,,,
,,,,Haushaltsgeräte,Topf,,,Focus,,,,,,,,,,,,,,,,,,,,,,,
,,,,Computer,Festplatte,,,FolderSys,,,,,,,,,,,,,,,,,,,,,,,
,,,,Haushaltsgeräte,Töpferscheibe,,,Freecom,,,,,,,,,,,,,,,,,,,,,,,
,,,,Haushaltsgeräte,Sprühflasche,,,Friwo,,,,,,,,,,,,,,,,,,,,,,,
,,,,Haushaltsgeräte,Reinigungszubehör,,,FrSky,,,,,,,,,,,,,,,,,,,,,,,
,,,,Elektro Sonstiges,Faxgerät,,,Fujifilm,,,,,,,,,,,,,,,,,,,,,,,
,,,,Haushaltsgeräte,Spielzeug,,,Fujikura,,,,,,,,,,,,,,,,,,,,,,,
,,,,Haushaltsgeräte,Geschirr,,,Fujitsu,,,,,,,,,,,,,,,,,,,,,,,
,,,,Haushaltsgeräte,Kühltruhe,,,Fukushima Futaba,,,,,,,,,,,,,,,,,,,,,,,
,,,,Fahrrad,E-Fahrrad,,,Galano,,,,,,,,,,,,,,,,,,,,,,,
,,,,Elektro Sonstiges,Steckdosenleiste,,,Gardena,,,,,,,,,,,,,,,,,,,,,,,
,,,,Elektro Sonstiges,Autodisplay,,,Garmin,,,,,,,,,,,,,,,,,,,,,,,
,,,,Elektro Sonstiges,Strommessgerät,,,Gazelle,,,,,,,,,,,,,,,,,,,,,,,
,,,,Haushaltsgeräte,Wäscheständer,,,General Electric,,,,,,,,,,,,,,,,,,,,,,,
,,,,Elektro Sonstiges,Aktenvernichter,,,Germatec,,,,,,,,,,,,,,,,,,,,,,,
,,,,Elektro Sonstiges,Schreibmaschine,,,Gigabyte,,,,,,,,,,,,,,,,,,,,,,,
,,,,Möbel (Holzbearbeitung),Gitarre,,,Gigahertz Solutions,,,,,,,,,,,,,,,,,,,,,,,
,,,,Möbel (Holzbearbeitung),Holz,,,Gigaset,,,,,,,,,,,,,,,,,,,,,,,
,,,,Elektro Sonstiges,Raclette,,,GlobTek,,,,,,,,,,,,,,,,,,,,,,,
,,,,Elektro Sonstiges,Sprechanlage,,,GoodSky,,,,,,,,,,,,,,,,,,,,,,,
,,,,Haushaltsgeräte,Waschmaschine,,,Goodyear,,,,,,,,,,,,,,,,,,,,,,,
,,,,Handy / Smartphone / Tablet,Mobiltelefon,,,Google,,,,,,,,,,,,,,,,,,,,,,,
,,,,Haushaltsgeräte,Luftentfeuchter,,,Google,,,,,,,,,,,,,,,,,,,,,,,
,,,,Möbel (Holzbearbeitung),Dekoration,,,GoPro,,,,,,,,,,,,,,,,,,,,,,,
,,,,Haushaltsgeräte,Teekanne,,,Gorenje,,,,,,,,,,,,,,,,,,,,,,,
,,,,Elektro Sonstiges,Rassierer,,,GP Batteries,,,,,,,,,,,,,,,,,,,,,,,
,,,,Haushaltsgeräte,Spülmaschine,,,Grace,,,,,,,,,,,,,,,,,,,,,,,
,,,,Haushaltsgeräte,Dörrgerät,,,Grothe,,,,,,,,,,,,,,,,,,,,,,,
,,,,Elektro Sonstiges,Diktiergerät,,,Grundig,,,,,,,,,,,,,,,,,,,,,,,
,,,,Haushaltsgeräte,Wasserpumpe,,,GT Bicycles,,,,,,,,,,,,,,,,,,,,,,,
,,,,Elektro Sonstiges,Auto,,,Güde,,,,,,,,,,,,,,,,,,,,,,,
,,,,Unterhaltungselektronik,Roboter,,,H. König,,,,,,,,,,,,,,,,,,,,,,,
,,,,Elektro Sonstiges,Lüfter,,,HAAgA,,,,,,,,,,,,,,,,,,,,,,,
,,,,Möbel (Holzbearbeitung),Vogelhäuschen,,,Hähnel Fototechnik,,,,,,,,,,,,,,,,,,,,,,,
,,,,Haushaltsgeräte,Grabegabel,,,Hama,,,,,,,,,,,,,,,,,,,,,,,
,,,,Upcycling/Basteln,Flyerhalter,,,Hammond Electronics,,,,,,,,,,,,,,,,,,,,,,,
,,,,Unterhaltungselektronik,Verstärker,,,hansgrohe,,,,,,,,,,,,,,,,,,,,,,,
,,,,Haushaltsgeräte,Milchaufschäumer,,,Harper,,,,,,,,,,,,,,,,,,,,,,,
,,,,Haushaltsgeräte,Schreibmaschine,,,Hasbro,,,,,,,,,,,,,,,,,,,,,,,
,,,,Unterhaltungselektronik,Radio-Kassetten-Recorder,,,Hasco Relays and Electronics,,,,,,,,,,,,,,,,,,,,,,,
,,,,Haushaltsgeräte,Fritteuse,,,Hauppauge,,,,,,,,,,,,,,,,,,,,,,,
,,,,Haushaltsgeräte,Dampfreiniger,,,HAWA,,,,,,,,,,,,,,,,,,,,,,,
,,,,Elektro Sonstiges,Uhrenbeweger,,,Hazet,,,,,,,,,,,,,,,,,,,,,,,
,,,,Elektro Sonstiges,Uhr,,,Hebotec,,,,,,,,,,,,,,,,,,,,,,,
,,,,Elektro Sonstiges,Drohne,,,Hecht,,,,,,,,,,,,,,,,,,,,,,,
,,,,Haushaltsgeräte,Haarschneidemaschine,,,Hera,,,,,,,,,,,,,,,,,,,,,,,
,,,,Elektro Sonstiges,Blitzgerät,,,Hercules,,,,,,,,,,,,,,,,,,,,,,,
,,,,Haushaltsgeräte,Klobürste,,,Heuer,,,,,,,,,,,,,,,,,,,,,,,
,,,,Haushaltsgeräte,Untersetzer,,,HGB,,,,,,,,,,,,,,,,,,,,,,,
,,,,Haushaltsgeräte,Wasserhahn,,,Hi5,,,,,,,,,,,,,,,,,,,,,,,
,,,,Upcycling/Basteln,Schild,,,Hicon,,,,,,,,,,,,,,,,,,,,,,,
,,,,,3D-Reparatur,,,HiFiBerry,,,,,,,,,,,,,,,,,,,,,,,
,,,,Elektro Sonstiges,Webcam,,,Hifonics,,,,,,,,,,,,,,,,,,,,,,,
,,,,Haushaltsgeräte,Kühlschrank,,,HIKVISION,,,,,,,,,,,,,,,,,,,,,,,
,,,,,Kamera,,,Hirose Electronic,,,,,,,,,,,,,,,,,,,,,,,
,,,,Upcycling/Basteln,Insektenhotel,,,Hitachi,,,,,,,,,,,,,,,,,,,,,,,
,,,,Upcycling/Basteln,Hochbeet,,,Hitachi,,,,,,,,,,,,,,,,,,,,,,,
,,,,Haushaltsgeräte,Ultraschallreiniger,,,Hitec,,,,,,,,,,,,,,,,,,,,,,,
,,,,Elektro Sonstiges,Heißluftpistole,,,Hohner,,,,,,,,,,,,,,,,,,,,,,,
,,,,Computer,Adapter,,,Honsel,,,,,,,,,,,,,,,,,,,,,,,
,,,,Computer,USB-Hub,,,Hoover,,,,,,,,,,,,,,,,,,,,,,,
,,,,Elektro Sonstiges,Heißklebepistole,,,Horizon,,,,,,,,,,,,,,,,,,,,,,,
,,,,Elektro Sonstiges,Kühlbox,,,HP,,,,,,,,,,,,,,,,,,,,,,,
,,,,Elektro Sonstiges,Pelletofen,,,HTB,,,,,,,,,,,,,,,,,,,,,,,
,,,,Haushaltsgeräte,Kinderwagen,,,HTC,,,,,,,,,,,,,,,,,,,,,,,
,,,,Elektro Sonstiges,Thermostat,,,HTP,,,,,,,,,,,,,,,,,,,,,,,
,,,,Haushaltsgeräte,Transportwagen,,,Huawei,,,,,,,,,,,,,,,,,,,,,,,
,,,,Handy / Smartphone / Tablet,Headset,,,Hudora,,,,,,,,,,,,,,,,,,,,,,,
,,,,Unterhaltungselektronik,Projektor,,,HuiYuan,,,,,,,,,,,,,,,,,,,,,,,
,,,,Computer,Gameboy,,,HUKITECH,,,,,,,,,,,,,,,,,,,,,,,
,,,,Elektro Sonstiges,Labornetzgerät,,,Humax,,,,,,,,,,,,,,,,,,,,,,,
,,,,Haushaltsgeräte,Geschirr,,,Husqvarna,,,,,,,,,,,,,,,,,,,,,,,
,,,,Elektro Sonstiges,Graviergerät,,,HyCell,,,,,,,,,,,,,,,,,,,,,,,
,,,,Haushaltsgeräte,Wassersprudler,,,Hyla,,,,,,,,,,,,,,,,,,,,,,,
,,,,Elektro Sonstiges,Steuergerät,,,Hyundai,,,,,,,,,,,,,,,,,,,,,,,
,,,,Computer,USB-Stick,,,Hyundai,,,,,,,,,,,,,,,,,,,,,,,
,,,,Elektro Sonstiges,Frequenzumrichter,,,i-tec,,,,,,,,,,,,,,,,,,,,,,,
,,,,Elektro Sonstiges,Autoschlüssel,,,IBM,,,,,,,,,,,,,,,,,,,,,,,
,,,,Schmuck,sonstiges,,,IC Inter Control,,,,,,,,,,,,,,,,,,,,,,,
,,,,Haushaltsgeräte,sonstiges,,,icontrol,,,,,,,,,,,,,,,,,,,,,,,
,,,,Schmuck,Brosche,,,Ideal,,,,,,,,,,,,,,,,,,,,,,,
,,,,Haushaltsgeräte,Luftbefeuchter,,,Ideal Tek,,,,,,,,,,,,,,,,,,,,,,,
,,,,Elektro Sonstiges,Vakumiergerät,,,Iduino,,,,,,,,,,,,,,,,,,,,,,,
,,,,Elektro Sonstiges,Schwertsäge,,,iFixit,,,,,,,,,,,,,,,,,,,,,,,
,,,,Haushaltsgeräte,Föhn,,,ifm Electronic,,,,,,,,,,,,,,,,,,,,,,,
,,,,Haushaltsgeräte,Trinkwassersprudler,,,Igarashi,,,,,,,,,,,,,,,,,,,,,,,
,,,,Haushaltsgeräte,Schnapprollo,,,Iiyama,,,,,,,,,,,,,,,,,,,,,,,
,,,,Elektro Sonstiges,Münzzählautomat,,,ILME,,,,,,,,,,,,,,,,,,,,,,,
,,,,Haushaltsgeräte,Pillenbox,,,iLuv,,,,,,,,,,,,,,,,,,,,,,,
,,,,Haushaltsgeräte,Locher,,,imax,,,,,,,,,,,,,,,,,,,,,,,
,,,,Haushaltsgeräte,Lupe,,,Immersion RC,,,,,,,,,,,,,,,,,,,,,,,
,,,,Computer,Kopierer,,,Impac,,,,,,,,,,,,,,,,,,,,,,,
,,,,Computer,Router,,,Inakustik,,,,,,,,,,,,,,,,,,,,,,,
,,,,Haushaltsgeräte,Rührgerät,,,Infineon Technologies,,,,,,,,,,,,,,,,,,,,,,,
,,,,Elektro Sonstiges,Ladegerät,,,Insys,,,,,,,,,,,,,,,,,,,,,,,
,,,,Haushaltsgeräte,Schredder,,,Intact Battery Guard,,,,,,,,,,,,,,,,,,,,,,,
,,,,Schmuck,Ohrring,,,Intel,,,,,,,,,,,,,,,,,,,,,,,
,,,,Haushaltsgeräte,Kleiderbügel,,,Intenso,,,,,,,,,,,,,,,,,,,,,,,
,,,,Haushaltsgeräte,Inhalator,,,Intercontec,,,,,,,,,,,,,,,,,,,,,,,
,,,,Haushaltsgeräte,Messerschärfer,,,Interkabel,,,,,,,,,,,,,,,,,,,,,,,
,,,,,Reibe,,,Interlink,,,,,,,,,,,,,,,,,,,,,,,
,,,,Möbel (Holzbearbeitung),Regal,,,Intertec,,,,,,,,,,,,,,,,,,,,,,,
,,,,Haushaltsgeräte,Salatschleuder,,,Intex,,,,,,,,,,,,,,,,,,,,,,,
,,,,Haushaltsgeräte,Backautomat,,,ION,,,,,,,,,,,,,,,,,,,,,,,
,,,,Haushaltsgeräte,Postkartenautomat,,,IRIS by Canon,,,,,,,,,,,,,,,,,,,,,,,
,,,,Haushaltsgeräte,Prägemaschine,,,iRobot,,,,,,,,,,,,,,,,,,,,,,,
,,,,Haushaltsgeräte,Strickmaschine,,,iRobot,,,,,,,,,,,,,,,,,,,,,,,
,,,,Haushaltsgeräte,Tacker,,,ITO,,,,,,,,,,,,,,,,,,,,,,,
,,,,Haushaltsgeräte,Laminiergerät,,,Jamicon,,,,,,,,,,,,,,,,,,,,,,,
,,,,Elektro Sonstiges,Türsprechanlage,,,JB Systems,,,,,,,,,,,,,,,,,,,,,,,
,,,,Handy / Smartphone / Tablet,Powerbank,,,JEDI Lighting,,,,,,,,,,,,,,,,,,,,,,,
,,,,Unterhaltungselektronik,Audiorecorder,,,JVG,,,,,,,,,,,,,,,,,,,,,,,
,,,,Computer,Diskettenlaufwerk,,,Kabeltronik,,,,,,,,,,,,,,,,,,,,,,,
,,,,Elektro Sonstiges,Dremel,,,Kaiser,,,,,,,,,,,,,,,,,,,,,,,
,,,,Elektro Sonstiges,Netzteil,,,Kalkhoff,,,,,,,,,,,,,,,,,,,,,,,
,,,,Fahrrad,Inlineskater,,,Kärcher,,,,,,,,,,,,,,,,,,,,,,,
,,,,Metallbearbeitung,Halterung,,,Kaspersky Lab,,,,,,,,,,,,,,,,,,,,,,,
,,,,Unterhaltungselektronik,Leiterplatte,,,Kenwood,,,,,,,,,,,,,,,,,,,,,,,
,,,,Haushaltsgeräte,Fensterreiniger,,,Kettler,,,,,,,,,,,,,,,,,,,,,,,
,,,,Elektro Sonstiges,Betonmischer,,,Keysight Technologies,,,,,,,,,,,,,,,,,,,,,,,
,,,,Elektro Sonstiges,Katzenklappe,,,Keysonic,,,,,,,,,,,,,,,,,,,,,,,
,,,,Haushaltsgeräte,Gewürzmühle,,,Kirby,,,,,,,,,,,,,,,,,,,,,,,
,,,,Elektro Sonstiges,Messgerät,,,Klicktel,,,,,,,,,,,,,,,,,,,,,,,
,,,,Computer,Single-Board-Computer,,,Knorr Tec,,,,,,,,,,,,,,,,,,,,,,,
,,,,Haushaltsgeräte,Allesschneider,,,Kodak,,,,,,,,,,,,,,,,,,,,,,,
,,,,Unterhaltungselektronik,Multimedia-Center,,,Koei Tecmo,,,,,,,,,,,,,,,,,,,,,,,
,,,,Haushaltsgeräte,Werkzeug,,,Koga,,,,,,,,,,,,,,,,,,,,,,,
,,,,Haushaltsgeräte,Besteck,,,Konami,,,,,,,,,,,,,,,,,,,,,,,
,,,,Haushaltsgeräte,Schleifstein,,,Korea Electronics,,,,,,,,,,,,,,,,,,,,,,,
,,,,Fahrrad,Kindersitz,,,KORG,,,,,,,,,,,,,,,,,,,,,,,
,,,,Haushaltsgeräte,Werkzeug,,,Kreidler,,,,,,,,,,,,,,,,,,,,,,,
,,,,Fahrrad,E-Roller,,,Krups,,,,,,,,,,,,,,,,,,,,,,,
,,,,Unterhaltungselektronik,Spielekonsole,,,Kumpan Electric,,,,,,,,,,,,,,,,,,,,,,,
,,,,Fahrrad,Fahrradlicht,,,Kynast,,,,,,,,,,,,,,,,,,,,,,,
,,,,Haushaltsgeräte,Ventilator,,,Kyocera,,,,,,,,,,,,,,,,,,,,,,,
,,,,Unterhaltungselektronik,Mischpult,,,Kyoritsu,,,,,,,,,,,,,,,,,,,,,,,
,,,,Haushaltsgeräte,Hochdruckreiniger,,,Kyosho,,,,,,,,,,,,,,,,,,,,,,,
,,,,Fahrrad,Kinderfahrrad,,,Kyutec,,,,,,,,,,,,,,,,,,,,,,,
,,,,Textilien,Vorhang,,,LaCie,,,,,,,,,,,,,,,,,,,,,,,
,,,,Elektro Sonstiges,Sicherungskasten,,,LAICA,,,,,,,,,,,,,,,,,,,,,,,
,,,,Haushaltsgeräte,Sonstiges,,,Lakes,,,,,,,,,,,,,,,,,,,,,,,
,,,,Haushaltsgeräte,Munddusche,,,Lascar Electronics,,,,,,,,,,,,,,,,,,,,,,,
,,,,Unterhaltungselektronik,Radiorecorder,,,Laserfuchs,,,,,,,,,,,,,,,,,,,,,,,
,,,,Elektro Sonstiges,Bohrhammer,,,Laserliner,,,,,,,,,,,,,,,,,,,,,,,
,,,,Unterhaltungselektronik,Kompaktanlage,,,Laserworld,,,,,,,,,,,,,,,,,,,,,,,
,,,,Fahrrad,Luftpumpe,,,Lavor,,,,,,,,,,,,,,,,,,,,,,,
,,,,Haushaltsgeräte,Kosmetikgerät,,,Lavor,,,,,,,,,,,,,,,,,,,,,,,
,,,,Computer,Schrittzähler,,,Lazer,,,,,,,,,,,,,,,,,,,,,,,
,,,,Haushaltsgeräte,Kochplatte,,,LD Systems,,,,,,,,,,,,,,,,,,,,,,,
,,,,Elektro Sonstiges,Megafon,,,LDPower,,,,,,,,,,,,,,,,,,,,,,,
,,,,Haushaltsgeräte,Wäschetrockner,,,LEAD Energy,,,,,,,,,,,,,,,,,,,,,,,
,,,,Elektro Sonstiges,E-Auto,,,Lebara,,,,,,,,,,,,,,,,,,,,,,,
,,,,Haushaltsgeräte,Herdplatte,,,LEDmaxx,,,,,,,,,,,,,,,,,,,,,,,
,,,,Haushaltsgeräte,Hächsler,,,LEGO,,,,,,,,,,,,,,,,,,,,,,,
,,,,Upcycling/Basteln,Modellauto,,,Leica,,,,,,,,,,,,,,,,,,,,,,,
,,,,Upcycling/Basteln,Halterung,,,Leifheit,,,,,,,,,,,,,,,,,,,,,,,
,,,,Haushaltsgeräte,Mühle,,,LEKI,,,,,,,,,,,,,,,,,,,,,,,
,,,,Haushaltsgeräte,Ofen,,,Lenovo,,,,,,,,,,,,,,,,,,,,,,,
,,,,Fahrrad,Fahrrad,,,Lexicon,,,,,,,,,,,,,,,,,,,,,,,
,,,,Haushaltsgeräte,Teigrolle,,,Lexmark,,,,,,,,,,,,,,,,,,,,,,,
,,,,Haushaltsgeräte,Musikinstrument,,,Lexware,,,,,,,,,,,,,,,,,,,,,,,
,,,,Möbel (Holzbearbeitung),Boot,,,LG Electronics,,,,,,,,,,,,,,,,,,,,,,,
,,,,Fahrrad,Schloss,,,Libratone,,,,,,,,,,,,,,,,,,,,,,,
,,,,Unterhaltungselektronik,Heimkinosystem,,,LinkDesk,,,,,,,,,,,,,,,,,,,,,,,
,,,,Computer,USB-Soundkarte,,,LiteXpress,,,,,,,,,,,,,,,,,,,,,,,
,,,,Computer,Mainboard,,,Lithium Powerbloc,,,,,,,,,,,,,,,,,,,,,,,
,,,,Haushaltsgeräte,Schulbedarf,,,Living,,,,,,,,,,,,,,,,,,,,,,,
,,,,Schmuck,Halskette,,,LogiLink,,,,,,,,,,,,,,,,,,,,,,,
,,,,Elektro Sonstiges,Globus,,,Logitech,,,,,,,,,,,,,,,,,,,,,,,
,,,,Elektro Sonstiges,Dunstabzugshaube,,,LTC Audio,,,,,,,,,,,,,,,,,,,,,,,
,,,,Upcycling/Basteln,Geschirr,,,LUMEX,,,,,,,,,,,,,,,,,,,,,,,
,,,,Computer,Taschenrechner,,,Lumix,,,,,,,,,,,,,,,,,,,,,,,
,,,,Elektro Sonstiges,Tischrechner,,,Lux,,,,,,,,,,,,,,,,,,,,,,,
,,,,Haushaltsgeräte,Fernglas,,,MAAS Elektronik,,,,,,,,,,,,,,,,,,,,,,,
,,,,Haushaltsgeräte,Badarmaturen,,,Mac Audio,,,,,,,,,,,,,,,,,,,,,,,
,,,,Elektro Sonstiges,Transformator,,,Mag-Lite,,,,,,,,,,,,,,,,,,,,,,,
,,,,Textilien,Hose,,,Magics,,,,,,,,,,,,,,,,,,,,,,,
,,,,Elektro Sonstiges,Weihnachtsbaumbeleuchtung,,,Makerbot,,,,,,,,,,,,,,,,,,,,,,,
,,,,Textilien,Bekleidung,,,Makerfactory,,,,,,,,,,,,,,,,,,,,,,,
,,,,Textilien,Bekleidung,,,Makita,,,,,,,,,,,,,,,,,,,,,,,
,,,,Textilien,Bekleidung,,,Märklin,,,,,,,,,,,,,,,,,,,,,,,
,,,,Textilien,Kleidung,,,Marmitek,,,,,,,,,,,,,,,,,,,,,,,
,,,,Haushaltsgeräte,Fusselfräse,,,Matsuo Electric,,,,,,,,,,,,,,,,,,,,,,,
,,,,Unterhaltungselektronik,DVD-Recorder,,,Mattel,,,,,,,,,,,,,,,,,,,,,,,
,,,,Elektro Sonstiges,Kehrmaschine,,,McAfee,,,,,,,,,,,,,,,,,,,,,,,
,,,,Elektro Sonstiges,Rasierapparat,,,McKenzie,,,,,,,,,,,,,,,,,,,,,,,
,,,,Textilien,Wetterschutz,,,Medion,,,,,,,,,,,,,,,,,,,,,,,
,,,,Elektro Sonstiges,Fitnesstrainer,,,Medium,,,,,,,,,,,,,,,,,,,,,,,
,,,,Elektro Sonstiges,Gartengeräte,,,Melissa,,,,,,,,,,,,,,,,,,,,,,,
,,,,Textilien,Bekleidung,,,Melitta,,,,,,,,,,,,,,,,,,,,,,,
,,,,Haushaltsgeräte,Küchenmaschine,,,Menzer,,,,,,,,,,,,,,,,,,,,,,,
,,,,Haushaltsgeräte,elektronische Zahnbürste,,,Metabo,,,,,,,,,,,,,,,,,,,,,,,
,,,,Metallbearbeitung,Topf,,,Michelin,,,,,,,,,,,,,,,,,,,,,,,
,,,,Elektro Sonstiges,Bandsäge,,,Micro-Swiss,,,,,,,,,,,,,,,,,,,,,,,
,,,,Elektro Sonstiges,Funkgerät Walkie Talkie,,,micro:bit,,,,,,,,,,,,,,,,,,,,,,,
,,,,Haushaltsgeräte,Stöpsel,,,Microchip Technology,,,,,,,,,,,,,,,,,,,,,,,
,,,,Haushaltsgeräte,Safe,,,Microelectronic,,,,,,,,,,,,,,,,,,,,,,,
,,,,Elektro Sonstiges,Kappsäge,,,Microsoft,,,,,,,,,,,,,,,,,,,,,,,
,,,,Elektro Sonstiges,Nebelmaschine,,,Miele,,,,,,,,,,,,,,,,,,,,,,,
,,,,Elektro Sonstiges,Mikroskop,,,MikroElektronika,,,,,,,,,,,,,,,,,,,,,,,
,,,,Fahrrad,Fahrradcomputer,,,Mitsubishi Electric,,,,,,,,,,,,,,,,,,,,,,,
,,,,Elektro Sonstiges,Luftkühler,,,Moneual,,,,,,,,,,,,,,,,,,,,,,,
,,,,Unterhaltungselektronik,Kassette,,,Mongoose,,,,,,,,,,,,,,,,,,,,,,,
,,,,Haushaltsgeräte,Messer,,,Morrison,,,,,,,,,,,,,,,,,,,,,,,
,,,,Haushaltsgeräte,Barometer,,,Motorola,,,,,,,,,,,,,,,,,,,,,,,
,,,,Elektro Sonstiges,Multifunktionswerkzeug,,,Müller,,,,,,,,,,,,,,,,,,,,,,,
,,,,Haushaltsgeräte,Wäschemangel,,,MultiCopy,,,,,,,,,,,,,,,,,,,,,,,
,,,,Elektro Sonstiges,Saugroboter,,,Multiplex,,,,,,,,,,,,,,,,,,,,,,,
,,,,Elektro Sonstiges,Tresor,,,multipower,,,,,,,,,,,,,,,,,,,,,,,
,,,,Computer,Beamer,,,Murata,,,,,,,,,,,,,,,,,,,,,,,
,,,,Elektro Sonstiges,Kreissäge,,,Namae Electronics,,,,,,,,,,,,,,,,,,,,,,,
,,,,Elektro Sonstiges,Kärcher,,,Necchi,,,,,,,,,,,,,,,,,,,,,,,
,,,,Haushaltsgeräte,Induktionsgerät,,,Neolux,,,,,,,,,,,,,,,,,,,,,,,
,,,,Metallbearbeitung,Türschloss,,,Nestlé,,,,,,,,,,,,,,,,,,,,,,,
,,,,Elektro Sonstiges,Armbanduhr,,,NETGEAR,,,,,,,,,,,,,,,,,,,,,,,
,,,,Elektro Sonstiges,Marderschreck,,,Nikon,,,,,,,,,,,,,,,,,,,,,,,
,,,,Haushaltsgeräte,Kurzzeitwecker (Eieruhr),,,Nilfisk,,,,,,,,,,,,,,,,,,,,,,,
,,,,Elektro Sonstiges,Papierschredderer,,,Nintendo,,,,,,,,,,,,,,,,,,,,,,,
,,,,Elektro Sonstiges,Standlüfter,,,NiteCore,,,,,,,,,,,,,,,,,,,,,,,
,,,,Elektro Sonstiges,Deltaschleifer,,,Nitro Concepts,,,,,,,,,,,,,,,,,,,,,,,
,,,,Elektro Sonstiges,Flex,,,Nokia,,,,,,,,,,,,,,,,,,,,,,,
,,,,Elektro Sonstiges,Bootsmotor,,,Nordlux,,,,,,,,,,,,,,,,,,,,,,,
,,,,,,,,NORICA,,,,,,,,,,,,,,,,,,,,,,,
,,,,,,,,Novatek,,,,,,,,,,,,,,,,,,,,,,,
,,,,,,,,Novitec,,,,,,,,,,,,,,,,,,,,,,,
,,,,,,,,Nowsonic,,,,,,,,,,,,,,,,,,,,,,,
,,,,,,,,Noxon,,,,,,,,,,,,,,,,,,,,,,,
,,,,,,,,Numatic,,,,,,,,,,,,,,,,,,,,,,,
,,,,,,,,O2,,,,,,,,,,,,,,,,,,,,,,,
,,,,,,,,OKI,,,,,,,,,,,,,,,,,,,,,,,
,,,,,,,,Olympia,,,,,,,,,,,,,,,,,,,,,,,
,,,,,,,,Olympus,,,,,,,,,,,,,,,,,,,,,,,
,,,,,,,,Omega,,,,,,,,,,,,,,,,,,,,,,,
,,,,,,,,Omen by HP,,,,,,,,,,,,,,,,,,,,,,,
,,,,,,,,Omnilux,,,,,,,,,,,,,,,,,,,,,,,
,,,,,,,,Omnitronic,,,,,,,,,,,,,,,,,,,,,,,
,,,,,,,,Oral-B,,,,,,,,,,,,,,,,,,,,,,,
,,,,,,,,Ortega,,,,,,,,,,,,,,,,,,,,,,,
,,,,,,,,Oshino,,,,,,,,,,,,,,,,,,,,,,,
,,,,,,,,OSRAM,,,,,,,,,,,,,,,,,,,,,,,
,,,,,,,,Outdoor Lights,,,,,,,,,,,,,,,,,,,,,,,
,,,,,,,,OutdoorTech,,,,,,,,,,,,,,,,,,,,,,,
,,,,,,,,Overmat,,,,,,,,,,,,,,,,,,,,,,,
,,,,,,,,Oxygen,,,,,,,,,,,,,,,,,,,,,,,
,,,,,,,,Palmer Audio,,,,,,,,,,,,,,,,,,,,,,,
,,,,,,,,Panasonic,,,,,,,,,,,,,,,,,,,,,,,
,,,,,,,,Panther,,,,,,,,,,,,,,,,,,,,,,,
,,,,,,,,Passat,,,,,,,,,,,,,,,,,,,,,,,
,,,,,,,,Patria,,,,,,,,,,,,,,,,,,,,,,,
,,,,,,,,Pegasus,,,,,,,,,,,,,,,,,,,,,,,
,,,,,,,,PerfectPro,,,,,,,,,,,,,,,,,,,,,,,
,,,,,,,,Perixx,,,,,,,,,,,,,,,,,,,,,,,
,,,,,,,,Perry Electric,,,,,,,,,,,,,,,,,,,,,,,
,,,,,,,,Peter Electronic,,,,,,,,,,,,,,,,,,,,,,,
,,,,,,,,Philips,,,,,,,,,,,,,,,,,,,,,,,
,,,,,,,,Phoenix,,,,,,,,,,,,,,,,,,,,,,,
,,,,,,,,PhotoFast,,,,,,,,,,,,,,,,,,,,,,,
,,,,,,,,Pietsch,,,,,,,,,,,,,,,,,,,,,,,
,,,,,,,,Pistrada,,,,,,,,,,,,,,,,,,,,,,,
,,,,,,,,Platinum,,,,,,,,,,,,,,,,,,,,,,,
,,,,,,,,PlayGo,,,,,,,,,,,,,,,,,,,,,,,
,,,,,,,,Polar,,,,,,,,,,,,,,,,,,,,,,,
,,,,,,,,Polarlite,,,,,,,,,,,,,,,,,,,,,,,
,,,,,,,,Polaroid,,,,,,,,,,,,,,,,,,,,,,,
,,,,,,,,Polisport,,,,,,,,,,,,,,,,,,,,,,,
,,,,,,,,Polk Audio,,,,,,,,,,,,,,,,,,,,,,,
,,,,,,,,Polti,,,,,,,,,,,,,,,,,,,,,,,
,,,,,,,,Polycom,,,,,,,,,,,,,,,,,,,,,,,
,,,,,,,,Polymaker,,,,,,,,,,,,,,,,,,,,,,,
,,,,,,,,polyWatch,,,,,,,,,,,,,,,,,,,,,,,
,,,,,,,,Pomona Electronics,,,,,,,,,,,,,,,,,,,,,,,
,,,,,,,,Pro Aqua,,,,,,,,,,,,,,,,,,,,,,,
,,,,,,,,Progress,,,,,,,,,,,,,,,,,,,,,,,
,,,,,,,,Protex,,,,,,,,,,,,,,,,,,,,,,,
,,,,,,,,Proxxon,,,,,,,,,,,,,,,,,,,,,,,
,,,,,,,,Qantek,,,,,,,,,,,,,,,,,,,,,,,
,,,,,,,,QNAP,,,,,,,,,,,,,,,,,,,,,,,
,,,,,,,,Qstarz,,,,,,,,,,,,,,,,,,,,,,,
,,,,,,,,Quancom,,,,,,,,,,,,,,,,,,,,,,,
,,,,,,,,Rabeneick,,,,,,,,,,,,,,,,,,,,,,,
,,,,,,,,Radon,,,,,,,,,,,,,,,,,,,,,,,
,,,,,,,,Rainbow,,,,,,,,,,,,,,,,,,,,,,,
,,,,,,,,Raleigh,,,,,,,,,,,,,,,,,,,,,,,
,,,,,,,,re-fuel,,,,,,,,,,,,,,,,,,,,,,,
,,,,,,,,RECOM,,,,,,,,,,,,,,,,,,,,,,,
,,,,,,,,Red Cycling Products,,,,,,,,,,,,,,,,,,,,,,,
,,,,,,,,REED Electronics,,,,,,,,,,,,,,,,,,,,,,,
,,,,,,,,Reflecta,,,,,,,,,,,,,,,,,,,,,,,
,,,,,,,,Regiolux,,,,,,,,,,,,,,,,,,,,,,,
,,,,,,,,Remington,,,,,,,,,,,,,,,,,,,,,,,
,,,,,,,,Revell,,,,,,,,,,,,,,,,,,,,,,,
,,,,,,,,Revo,,,,,,,,,,,,,,,,,,,,,,,
,,,,,,,,Rewitec,,,,,,,,,,,,,,,,,,,,,,,
,,,,,,,,Rex/Alu-Rex,,,,,,,,,,,,,,,,,,,,,,,
,,,,,,,,Rexroth by Bosch Group,,,,,,,,,,,,,,,,,,,,,,,
,,,,,,,,Ripmax,,,,,,,,,,,,,,,,,,,,,,,
,,,,,,,,Ritel,,,,,,,,,,,,,,,,,,,,,,,
,,,,,,,,Rixe,,,,,,,,,,,,,,,,,,,,,,,
,,,,,,,,Rohde,,,,,,,,,,,,,,,,,,,,,,,
,,,,,,,,Rohde & Schwarz,,,,,,,,,,,,,,,,,,,,,,,
,,,,,,,,Roland,,,,,,,,,,,,,,,,,,,,,,,
,,,,,,,,Rolec,,,,,,,,,,,,,,,,,,,,,,,
,,,,,,,,Rolektro,,,,,,,,,,,,,,,,,,,,,,,
,,,,,,,,Rollei,,,,,,,,,,,,,,,,,,,,,,,
,,,,,,,,Rolux,,,,,,,,,,,,,,,,,,,,,,,
,,,,,,,,Rose,,,,,,,,,,,,,,,,,,,,,,,
,,,,,,,,Ross-Tech,,,,,,,,,,,,,,,,,,,,,,,
,,,,,,,,Rotring,,,,,,,,,,,,,,,,,,,,,,,
,,,,,,,,Rowenta,,,,,,,,,,,,,,,,,,,,,,,
,,,,,,,,Rowenta,,,,,,,,,,,,,,,,,,,,,,,
,,,,,,,,Rowi,,,,,,,,,,,,,,,,,,,,,,,
,,,,,,,,Roxio,,,,,,,,,,,,,,,,,,,,,,,
,,,,,,,,ROXXY,,,,,,,,,,,,,,,,,,,,,,,
,,,,,,,,RunCam,,,,,,,,,,,,,,,,,,,,,,,
,,,,,,,,Russell Hobbs,,,,,,,,,,,,,,,,,,,,,,,
,,,,,,,,Saeco,,,,,,,,,,,,,,,,,,,,,,,
,,,,,,,,Safescan,,,,,,,,,,,,,,,,,,,,,,,
,,,,,,,,SafeSight,,,,,,,,,,,,,,,,,,,,,,,
,,,,,,,,Sagem,,,,,,,,,,,,,,,,,,,,,,,
,,,,,,,,Saia,,,,,,,,,,,,,,,,,,,,,,,
,,,,,,,,Saico,,,,,,,,,,,,,,,,,,,,,,,
,,,,,,,,Samsung,,,,,,,,,,,,,,,,,,,,,,,
,,,,,,,,Samwha,,,,,,,,,,,,,,,,,,,,,,,
,,,,,,,,Samxon,,,,,,,,,,,,,,,,,,,,,,,
,,,,,,,,Samyang,,,,,,,,,,,,,,,,,,,,,,,
,,,,,,,,Sandgest Microelectronics,,,,,,,,,,,,,,,,,,,,,,,
,,,,,,,,SanDisk,,,,,,,,,,,,,,,,,,,,,,,
,,,,,,,,Santa Cruz,,,,,,,,,,,,,,,,,,,,,,,
,,,,,,,,Sanwa,,,,,,,,,,,,,,,,,,,,,,,
,,,,,,,,Sanyo,,,,,,,,,,,,,,,,,,,,,,,
,,,,,,,,Sapphire,,,,,,,,,,,,,,,,,,,,,,,
,,,,,,,,Sauter,,,,,,,,,,,,,,,,,,,,,,,
,,,,,,,,SCAN in a BOX,,,,,,,,,,,,,,,,,,,,,,,
,,,,,,,,ScanPart,,,,,,,,,,,,,,,,,,,,,,,
,,,,,,,,Scansonic,,,,,,,,,,,,,,,,,,,,,,,
,,,,,,,,Schneider,,,,,,,,,,,,,,,,,,,,,,,
,,,,,,,,Schwalbe,,,,,,,,,,,,,,,,,,,,,,,
,,,,,,,,Schwinn,,,,,,,,,,,,,,,,,,,,,,,
,,,,,,,,Sebo,,,,,,,,,,,,,,,,,,,,,,,
,,,,,,,,Secure,,,,,,,,,,,,,,,,,,,,,,,
,,,,,,,,Security Plus,,,,,,,,,,,,,,,,,,,,,,,
,,,,,,,,SecuTech,,,,,,,,,,,,,,,,,,,,,,,
,,,,,,,,SellNet,,,,,,,,,,,,,,,,,,,,,,,
,,,,,,,,Sencor,,,,,,,,,,,,,,,,,,,,,,,
,,,,,,,,Sennheiser,,,,,,,,,,,,,,,,,,,,,,,
,,,,,,,,SENSEO®,,,,,,,,,,,,,,,,,,,,,,,
,,,,,,,,Severin,,,,,,,,,,,,,,,,,,,,,,,
,,,,,,,,Sharp,,,,,,,,,,,,,,,,,,,,,,,
,,,,,,,,Shift Phone,,,,,,,,,,,,,,,,,,,,,,,
,,,,,,,,Sichler,,,,,,,,,,,,,,,,,,,,,,,
,,,,,,,,Siemens,,,,,,,,,,,,,,,,,,,,,,,
,,,,,,,,Sievert,,,,,,,,,,,,,,,,,,,,,,,
,,,,,,,,Sigma,,,,,,,,,,,,,,,,,,,,,,,
,,,,,,,,Sihl,,,,,,,,,,,,,,,,,,,,,,,
,,,,,,,,SIKU,,,,,,,,,,,,,,,,,,,,,,,
,,,,,,,,Silex Technology,,,,,,,,,,,,,,,,,,,,,,,
,,,,,,,,Simba,,,,,,,,,,,,,,,,,,,,,,,
,,,,,,,,Simba,,,,,,,,,,,,,,,,,,,,,,,
,,,,,,,,Simtoo,,,,,,,,,,,,,,,,,,,,,,,
,,,,,,,,Singer,,,,,,,,,,,,,,,,,,,,,,,
,,,,,,,,Sinuslive,,,,,,,,,,,,,,,,,,,,,,,
,,,,,,,,Sinustec,,,,,,,,,,,,,,,,,,,,,,,
,,,,,,,,Sitec,,,,,,,,,,,,,,,,,,,,,,,
,,,,,,,,SJCam,,,,,,,,,,,,,,,,,,,,,,,
,,,,,,,,SKS Germany,,,,,,,,,,,,,,,,,,,,,,,
,,,,,,,,SKS Hirschmann,,,,,,,,,,,,,,,,,,,,,,,
,,,,,,,,Sky Vision,,,,,,,,,,,,,,,,,,,,,,,
,,,,,,,,Skymaster,,,,,,,,,,,,,,,,,,,,,,,
,,,,,,,,Skyworth,,,,,,,,,,,,,,,,,,,,,,,
,,,,,,,,Skyworth,,,,,,,,,,,,,,,,,,,,,,,
,,,,,,,,SNOM,,,,,,,,,,,,,,,,,,,,,,,
,,,,,,,,Sodastream,,,,,,,,,,,,,,,,,,,,,,,
,,,,,,,,Sonos,,,,,,,,,,,,,,,,,,,,,,,
,,,,,,,,Sontec,,,,,,,,,,,,,,,,,,,,,,,
,,,,,,,,Sony,,,,,,,,,,,,,,,,,,,,,,,
,,,,,,,,SOS Electronic,,,,,,,,,,,,,,,,,,,,,,,
,,,,,,,,SoundCraft,,,,,,,,,,,,,,,,,,,,,,,
,,,,,,,,SoundMaster,,,,,,,,,,,,,,,,,,,,,,,
,,,,,,,,Speed-Link,,,,,,,,,,,,,,,,,,,,,,,
,,,,,,,,Sprintus,,,,,,,,,,,,,,,,,,,,,,,
,,,,,,,,StandexMeder Electronics,,,,,,,,,,,,,,,,,,,,,,,
,,,,,,,,Starmix,,,,,,,,,,,,,,,,,,,,,,,
,,,,,,,,Steppenwolf,,,,,,,,,,,,,,,,,,,,,,,
,,,,,,,,Superlux,,,,,,,,,,,,,,,,,,,,,,,
,,,,,,,,swisstone,,,,,,,,,,,,,,,,,,,,,,,
,,,,,,,,Sylvania,,,,,,,,,,,,,,,,,,,,,,,
,,,,,,,,Symantec,,,,,,,,,,,,,,,,,,,,,,,
,,,,,,,,Synergetic,,,,,,,,,,,,,,,,,,,,,,,
,,,,,,,,SYNERGY 21,,,,,,,,,,,,,,,,,,,,,,,
,,,,,,,,Syntrox,,,,,,,,,,,,,,,,,,,,,,,
,,,,,,,,Tadiran Batteries,,,,,,,,,,,,,,,,,,,,,,,
,,,,,,,,Taiwan Semiconductor,,,,,,,,,,,,,,,,,,,,,,,
,,,,,,,,Talema,,,,,,,,,,,,,,,,,,,,,,,
,,,,,,,,TAMA,,,,,,,,,,,,,,,,,,,,,,,
,,,,,,,,Tchibo,,,,,,,,,,,,,,,,,,,,,,,
,,,,,,,,TCL,,,,,,,,,,,,,,,,,,,,,,,
,,,,,,,,TE Connectivity,,,,,,,,,,,,,,,,,,,,,,,
,,,,,,,,Team Electronic,,,,,,,,,,,,,,,,,,,,,,,
,,,,,,,,Tech-Craft,,,,,,,,,,,,,,,,,,,,,,,
,,,,,,,,Tecnobike,,,,,,,,,,,,,,,,,,,,,,,
,,,,,,,,Telecom,,,,,,,,,,,,,,,,,,,,,,,
,,,,,,,,Telefunken,,,,,,,,,,,,,,,,,,,,,,,
,,,,,,,,TermaTech,,,,,,,,,,,,,,,,,,,,,,,
,,,,,,,,Tewa Electronics,,,,,,,,,,,,,,,,,,,,,,,
,,,,,,,,Theo Klein,,,,,,,,,,,,,,,,,,,,,,,
,,,,,,,,Thomas,,,,,,,,,,,,,,,,,,,,,,,
,,,,,,,,Thomson,,,,,,,,,,,,,,,,,,,,,,,
,,,,,,,,Thule,,,,,,,,,,,,,,,,,,,,,,,
,,,,,,,,TomTom,,,,,,,,,,,,,,,,,,,,,,,
,,,,,,,,TOOLCRAFT,,,,,,,,,,,,,,,,,,,,,,,
,,,,,,,,Topcom,,,,,,,,,,,,,,,,,,,,,,,
,,,,,,,,Topstar,,,,,,,,,,,,,,,,,,,,,,,
,,,,,,,,Torpedo,,,,,,,,,,,,,,,,,,,,,,,
,,,,,,,,Toshiba,,,,,,,,,,,,,,,,,,,,,,,
,,,,,,,,Total Control,,,,,,,,,,,,,,,,,,,,,,,
,,,,,,,,Toyota Nähmaschinen,,,,,,,,,,,,,,,,,,,,,,,
,,,,,,,,Transcend,,,,,,,,,,,,,,,,,,,,,,,
,,,,,,,,Treemme,,,,,,,,,,,,,,,,,,,,,,,
,,,,,,,,Trinamic,,,,,,,,,,,,,,,,,,,,,,,
,,,,,,,,Tristar,,,,,,,,,,,,,,,,,,,,,,,
,,,,,,,,Triumph,,,,,,,,,,,,,,,,,,,,,,,
,,,,,,,,Triumph Adler,,,,,,,,,,,,,,,,,,,,,,,
,,,,,,,,TRIX,,,,,,,,,,,,,,,,,,,,,,,
,,,,,,,,TRL Funksysteme,,,,,,,,,,,,,,,,,,,,,,,
,,,,,,,,Trodat,,,,,,,,,,,,,,,,,,,,,,,
,,,,,,,,Tronje,,,,,,,,,,,,,,,,,,,,,,,
,,,,,,,,TRU COMPONENTS,,,,,,,,,,,,,,,,,,,,,,,
,,,,,,,,TrueCam,,,,,,,,,,,,,,,,,,,,,,,
,,,,,,,,Trxcom,,,,,,,,,,,,,,,,,,,,,,,
,,,,,,,,TT Electronics AB,,,,,,,,,,,,,,,,,,,,,,,
,,,,,,,,Tucano,,,,,,,,,,,,,,,,,,,,,,,
,,,,,,,,Tukan,,,,,,,,,,,,,,,,,,,,,,,
,,,,,,,,Turtle Beach,,,,,,,,,,,,,,,,,,,,,,,
,,,,,,,,Twelve South,,,,,,,,,,,,,,,,,,,,,,,
,,,,,,,,Twen,,,,,,,,,,,,,,,,,,,,,,,
,,,,,,,,Twentieth Century Fox,,,,,,,,,,,,,,,,,,,,,,,
,,,,,,,,Typhoon,,,,,,,,,,,,,,,,,,,,,,,
,,,,,,,,U & I Entertainment,,,,,,,,,,,,,,,,,,,,,,,
,,,,,,,,UbiSoft,,,,,,,,,,,,,,,,,,,,,,,
,,,,,,,,Ubtech,,,,,,,,,,,,,,,,,,,,,,,
,,,,,,,,UE ultimate ears,,,,,,,,,,,,,,,,,,,,,,,
,,,,,,,,UHU,,,,,,,,,,,,,,,,,,,,,,,
,,,,,,,,Ultimaker,,,,,,,,,,,,,,,,,,,,,,,
,,,,,,,,Ultralife,,,,,,,,,,,,,,,,,,,,,,,
,,,,,,,,Ultron,,,,,,,,,,,,,,,,,,,,,,,
,,,,,,,,Union,,,,,,,,,,,,,,,,,,,,,,,
,,,,,,,,Unit,,,,,,,,,,,,,,,,,,,,,,,
,,,,,,,,Unitec,,,,,,,,,,,,,,,,,,,,,,,
,,,,,,,,Univega,,,,,,,,,,,,,,,,,,,,,,,
,,,,,,,,Univer,,,,,,,,,,,,,,,,,,,,,,,
,,,,,,,,Universal Pictures,,,,,,,,,,,,,,,,,,,,,,,
,,,,,,,,Universum,,,,,,,,,,,,,,,,,,,,,,,
,,,,,,,,Vantage,,,,,,,,,,,,,,,,,,,,,,,
,,,,,,,,Vantage Foto,,,,,,,,,,,,,,,,,,,,,,,
,,,,,,,,VARIOfit,,,,,,,,,,,,,,,,,,,,,,,
,,,,,,,,Variox,,,,,,,,,,,,,,,,,,,,,,,
,,,,,,,,Varo,,,,,,,,,,,,,,,,,,,,,,,
,,,,,,,,Varta,,,,,,,,,,,,,,,,,,,,,,,
,,,,,,,,Vax,,,,,,,,,,,,,,,,,,,,,,,
,,,,,,,,VELCRO® brand,,,,,,,,,,,,,,,,,,,,,,,
,,,,,,,,Vélo de Ville,,,,,,,,,,,,,,,,,,,,,,,
,,,,,,,,Veloflex,,,,,,,,,,,,,,,,,,,,,,,
,,,,,,,,Verbatim,,,,,,,,,,,,,,,,,,,,,,,
,,,,,,,,Victoria,,,,,,,,,,,,,,,,,,,,,,,
,,,,,,,,Viewsonic,,,,,,,,,,,,,,,,,,,,,,,
,,,,,,,,Viking Tech,,,,,,,,,,,,,,,,,,,,,,,
,,,,,,,,Vileda,,,,,,,,,,,,,,,,,,,,,,,
,,,,,,,,Vileda,,,,,,,,,,,,,,,,,,,,,,,
,,,,,,,,Villiger,,,,,,,,,,,,,,,,,,,,,,,
,,,,,,,,VINATech,,,,,,,,,,,,,,,,,,,,,,,
,,,,,,,,Viron,,,,,,,,,,,,,,,,,,,,,,,
,,,,,,,,Vision,,,,,,,,,,,,,,,,,,,,,,,
,,,,,,,,VISO,,,,,,,,,,,,,,,,,,,,,,,
,,,,,,,,Visolight,,,,,,,,,,,,,,,,,,,,,,,
,,,,,,,,Vodafone,,,,,,,,,,,,,,,,,,,,,,,
,,,,,,,,Vogt Verbindungstechnik,,,,,,,,,,,,,,,,,,,,,,,
,,,,,,,,VOKA Kabelwerk,,,,,,,,,,,,,,,,,,,,,,,
,,,,,,,,Vollmer,,,,,,,,,,,,,,,,,,,,,,,
,,,,,,,,VOLTCRAFT,,,,,,,,,,,,,,,,,,,,,,,
,,,,,,,,Vorwerk,,,,,,,,,,,,,,,,,,,,,,,
,,,,,,,,Votec,,,,,,,,,,,,,,,,,,,,,,,
,,,,,,,,Votex,,,,,,,,,,,,,,,,,,,,,,,
,,,,,,,,VOX Amplification,,,,,,,,,,,,,,,,,,,,,,,
,,,,,,,,vsf Fahrradmanufaktur,,,,,,,,,,,,,,,,,,,,,,,
,,,,,,,,VTech,,,,,,,,,,,,,,,,,,,,,,,
,,,,,,,,Vulcascot,,,,,,,,,,,,,,,,,,,,,,,
,,,,,,,,W & P Products,,,,,,,,,,,,,,,,,,,,,,,
,,,,,,,,Wacom,,,,,,,,,,,,,,,,,,,,,,,
,,,,,,,,Waeco,,,,,,,,,,,,,,,,,,,,,,,
,,,,,,,,Wagner,,,,,,,,,,,,,,,,,,,,,,,
,,,,,,,,WAGO,,,,,,,,,,,,,,,,,,,,,,,
,,,,,,,,Waldi Leuchten,,,,,,,,,,,,,,,,,,,,,,,
,,,,,,,,Walter Werkzeuge,,,,,,,,,,,,,,,,,,,,,,,
,,,,,,,,Walther,,,,,,,,,,,,,,,,,,,,,,,
,,,,,,,,Wanderer,,,,,,,,,,,,,,,,,,,,,,,
,,,,,,,,wantec,,,,,,,,,,,,,,,,,,,,,,,
,,,,,,,,Warner Bros,,,,,,,,,,,,,,,,,,,,,,,
,,,,,,,,Wassermaxx,,,,,,,,,,,,,,,,,,,,,,,
,,,,,,,,Weber Hydraulik,,,,,,,,,,,,,,,,,,,,,,,
,,,,,,,,WeEn Semiconductors,,,,,,,,,,,,,,,,,,,,,,,
,,,,,,,,WEICON,,,,,,,,,,,,,,,,,,,,,,,
,,,,,,,,Weipu,,,,,,,,,,,,,,,,,,,,,,,
,,,,,,,,Weiss Elektrotechnik,,,,,,,,,,,,,,,,,,,,,,,
,,,,,,,,Weller,,,,,,,,,,,,,,,,,,,,,,,
,,,,,,,,Wellgo,,,,,,,,,,,,,,,,,,,,,,,
,,,,,,,,Werma Signaltechnik,,,,,,,,,,,,,,,,,,,,,,,
,,,,,,,,Western Co.,,,,,,,,,,,,,,,,,,,,,,,
,,,,,,,,Western Digital,,,,,,,,,,,,,,,,,,,,,,,
,,,,,,,,`name`,,,,,,,,,,,,,,,,,,,,,,,
,,,,,,,,Westfalia,,,,,,,,,,,,,,,,,,,,,,,
,,,,,,,,Wheel Stand Pro,,,,,,,,,,,,,,,,,,,,,,,
,,,,,,,,Widap,,,,,,,,,,,,,,,,,,,,,,,
,,,,,,,,Wieland,,,,,,,,,,,,,,,,,,,,,,,
,,,,,,,,Wiha,,,,,,,,,,,,,,,,,,,,,,,
,,,,,,,,Wiking,,,,,,,,,,,,,,,,,,,,,,,
,,,,,,,,WIKO,,,,,,,,,,,,,,,,,,,,,,,
,,,,,,,,Wilesco,,,,,,,,,,,,,,,,,,,,,,,
,,,,,,,,Winora,,,,,,,,,,,,,,,,,,,,,,,
,,,,,,,,WinTec,,,,,,,,,,,,,,,,,,,,,,,
,,,,,,,,Wiper,,,,,,,,,,,,,,,,,,,,,,,
,,,,,,,,Witte Werkzeug,,,,,,,,,,,,,,,,,,,,,,,
,,,,,,,,Wittenberg Antennen,,,,,,,,,,,,,,,,,,,,,,,
,,,,,,,,WiZ,,,,,,,,,,,,,,,,,,,,,,,
,,,,,,,,WKK,,,,,,,,,,,,,,,,,,,,,,,
,,,,,,,,WMF,,,,,,,,,,,,,,,,,,,,,,,
,,,,,,,,Working Robots,,,,,,,,,,,,,,,,,,,,,,,
,,,,,,,,Würth Elektronik,,,,,,,,,,,,,,,,,,,,,,,
,,,,,,,,WWiO,,,,,,,,,,,,,,,,,,,,,,,
,,,,,,,,XCell,,,,,,,,,,,,,,,,,,,,,,,
,,,,,,,,Xerox,,,,,,,,,,,,,,,,,,,,,,,
,,,,,,,,XtremeMAC,,,,,,,,,,,,,,,,,,,,,,,
,,,,,,,,Xvantage,,,,,,,,,,,,,,,,,,,,,,,
,,,,,,,,XXL Tech,,,,,,,,,,,,,,,,,,,,,,,
,,,,,,,,XYZprinting,,,,,,,,,,,,,,,,,,,,,,,
,,,,,,,,Y-Cam,,,,,,,,,,,,,,,,,,,,,,,
,,,,,,,,Yageo,,,,,,,,,,,,,,,,,,,,,,,
,,,,,,,,Yamaha,,,,,,,,,,,,,,,,,,,,,,,
,,,,,,,,Yamaichi,,,,,,,,,,,,,,,,,,,,,,,
,,,,,,,,Yazoo,,,,,,,,,,,,,,,,,,,,,,,
,,,,,,,,Yolk,,,,,,,,,,,,,,,,,,,,,,,
,,,,,,,,Yuasa,,,,,,,,,,,,,,,,,,,,,,,
,,,,,,,,Yukon,,,,,,,,,,,,,,,,,,,,,,,
,,,,,,,,Yuneec,,,,,,,,,,,,,,,,,,,,,,,
,,,,,,,,Yunpen,,,,,,,,,,,,,,,,,,,,,,,
,,,,,,,,Z-Wave ME,,,,,,,,,,,,,,,,,,,,,,,
,,,,,,,,Zaap TV,,,,,,,,,,,,,,,,,,,,,,,
,,,,,,,,ZAGG,,,,,,,,,,,,,,,,,,,,,,,
,,,,,,,,Zamel,,,,,,,,,,,,,,,,,,,,,,,
,,,,,,,,Zanders,,,,,,,,,,,,,,,,,,,,,,,
,,,,,,,,Zanussi,,,,,,,,,,,,,,,,,,,,,,,
,,,,,,,,ZARGES,,,,,,,,,,,,,,,,,,,,,,,
,,,,,,,,Zeiss,,,,,,,,,,,,,,,,,,,,,,,
,,,,,,,,Zemo,,,,,,,,,,,,,,,,,,,,,,,
,,,,,,,,ZeroTech,,,,,,,,,,,,,,,,,,,,,,,
,,,,,,,,Zetagi,,,,,,,,,,,,,,,,,,,,,,,
,,,,,,,,Zettler,,,,,,,,,,,,,,,,,,,,,,,
,,,,,,,,Zilan,,,,,,,,,,,,,,,,,,,,,,,
,,,,,,,,ZTE,,,,,,,,,,,,,,,,,,,,,,,
,,,,,,,,Zündapp,,,,,,,,,,,,,,,,,,,,,,,
,,,,,,,,SEPPELFRICKE,,,,,,,,,,,,,,,,,,,,,,,
,,,,,,,,Vestfrost,,,,,,,,,,,,,,,,,,,,,,,
,,,,,,,,TECHWOOD,,,,,,,,,,,,,,,,,,,,,,,
,,,,,,,,Termikel,,,,,,,,,,,,,,,,,,,,,,,
,,,,,,,,Eudora,,,,,,,,,,,,,,,,,,,,,,,
,,,,,,,,Whirlpool,,,,,,,,,,,,,,,,,,,,,,,
,,,,,,,,EBD,,,,,,,,,,,,,,,,,,,,,,,
,,,,,,,,SEG,,,,,,,,,,,,,,,,,,,,,,,
,,,,,,,,Privileg,,,,,,,,,,,,,,,,,,,,,,,
,,,,,,,,FORON,,,,,,,,,,,,,,,,,,,,,,,
,,,,,,,,VESTEL,,,,,,,,,,,,,,,,,,,,,,,
,,,,,,,,Baumatic,,,,,,,,,,,,,,,,,,,,,,,
,,,,,,,,Luxor,,,,,,,,,,,,,,,,,,,,,,,
,,,,,,,,Ignis,,,,,,,,,,,,,,,,,,,,,,,
,,,,,,,,provenero,,,,,,,,,,,,,,,,,,,,,,,
,,,,,,,,Marke OK,,,,,,,,,,,,,,,,,,,,,,,
,,,,,,,,ELIN,,,,,,,,,,,,,,,,,,,,,,,
,,,,,,,,Kelon/AMC,,,,,,,,,,,,,,,,,,,,,,,
,,,,,,,,Lagermania,,,,,,,,,,,,,,,,,,,,,,,
,,,,,,,,Burg,,,,,,,,,,,,,,,,,,,,,,,
,,,,,,,,Ardo,,,,,,,,,,,,,,,,,,,,,,,
,,,,,,,,Eurotech,,,,,,,,,,,,,,,,,,,,,,,
,,,,,,,,Reebok,,,,,,,,,,,,,,,,,,,,,,,
,,,,,,,,Respekta,,,,,,,,,,,,,,,,,,,,,,,
,,,,,,,,Finlux,,,,,,,,,,,,,,,,,,,,,,,
,,,,,,,,MIO STAR,,,,,,,,,,,,,,,,,,,,,,,
,,,,,,,,La Germania,,,,,,,,,,,,,,,,,,,,,,,
,,,,,,,,Playmobil,,,,,,,,,,,,,,,,,,,,,,,
,,,,,,,,Bernina,,,,,,,,,,,,,,,,,,,,,,,
,,,,,,,,Easy Home (ALDI),,,,,,,,,,,,,,,,,,,,,,,
,,,,,,,,Onkyo,,,,,,,,,,,,,,,,,,,,,,,
,,,,,,,,auna,,,,,,,,,,,,,,,,,,,,,,,
,,,,,,,,IFA,,,,,,,,,,,,,,,,,,,,,,,
,,,,,,,,TEXTIMA,,,,,,,,,,,,,,,,,,,,,,,
,,,,,,,,Moulinex,,,,,,,,,,,,,,,,,,,,,,,
,,,,,,,,Tevion,,,,,,,,,,,,,,,,,,,,,,,
,,,,,,,,Homebase,,,,,,,,,,,,,,,,,,,,,,,
,,,,,,,,Merlin,,,,,,,,,,,,,,,,,,,,,,,
,,,,,,,,Denver,,,,,,,,,,,,,,,,,,,,,,,
,,,,,,,,Saba,,,,,,,,,,,,,,,,,,,,,,,
,,,,,,,,Kendo,,,,,,,,,,,,,,,,,,,,,,,
,,,,,,,,Hit Company,,,,,,,,,,,,,,,,,,,,,,,
,,,,,,,,Oskar,,,,,,,,,,,,,,,,,,,,,,,
,,,,,,,,Watson,,,,,,,,,,,,,,,,,,,,,,,
,,,,,,,,Gudereit,,,,,,,,,,,,,,,,,,,,,,,
,,,,,,,,Comair,,,,,,,,,,,,,,,,,,,,,,,
,,,,,,,,Fender,,,,,,,,,,,,,,,,,,,,,,,
,,,,,,,,Dual,,,,,,,,,,,,,,,,,,,,,,,
,,,,,,,,Kress,,,,,,,,,,,,,,,,,,,,,,,
,,,,,,,,Quigg,,,,,,,,,,,,,,,,,,,,,,,
,,,,,,,,ITT,,,,,,,,,,,,,,,,,,,,,,,
,,,,,,,,Archos,,,,,,,,,,,,,,,,,,,,,,,
,,,,,,,,RFT,,,,,,,,,,,,,,,,,,,,,,,
,,,,,,,,Rommelsbacher,,,,,,,,,,,,,,,,,,,,,,,
,,,,,,,,Ulm Series,,,,,,,,,,,,,,,,,,,,,,,
,,,,,,,,REV,,,,,,,,,,,,,,,,,,,,,,,
,,,,,,,,florabest,,,,,,,,,,,,,,,,,,,,,,,
,,,,,,,,Muvid,,,,,,,,,,,,,,,,,,,,,,,
,,,,,,,,H&M,,,,,,,,,,,,,,,,,,,,,,,
,,,,,,,,Tranquillo,,,,,,,,,,,,,,,,,,,,,,,
,,,,,,,,Smalcalda,,,,,,,,,,,,,,,,,,,,,,,
,,,,,,,,AKA,,,,,,,,,,,,,,,,,,,,,,,
,,,,,,,,Stern,,,,,,,,,,,,,,,,,,,,,,,
,,,,,,,,TEAC,,,,,,,,,,,,,,,,,,,,,,,
,,,,,,,,Manufactum,,,,,,,,,,,,,,,,,,,,,,,
,,,,,,,,Magazin,,,,,,,,,,,,,,,,,,,,,,,
,,,,,,,,Nespresso,,,,,,,,,,,,,,,,,,,,,,,
,,,,,,,,Dickie,,,,,,,,,,,,,,,,,,,,,,,
,,,,,,,,MIFA,,,,,,,,,,,,,,,,,,,,,,,
,,,,,,,,iPoint,,,,,,,,,,,,,,,,,,,,,,,
,,,,,,,,Teufel,,,,,,,,,,,,,,,,,,,,,,,
,,,,,,,,Steelseries,,,,,,,,,,,,,,,,,,,,,,,
,,,,,,,,Bose,,,,,,,,,,,,,,,,,,,,,,,
,,,,,,,,Tesco,,,,,,,,,,,,,,,,,,,,,,,
,,,,,,,,Multimax,,,,,,,,,,,,,,,,,,,,,,,
,,,,,,,,Klarstein,,,,,,,,,,,,,,,,,,,,,,,
,,,,,,,,Ravensburger,,,,,,,,,,,,,,,,,,,,,,,
,,,,,,,,IKEA,,,,,,,,,,,,,,,,,,,,,,,
,,,,,,,,JBL,,,,,,,,,,,,,,,,,,,,,,,
,,,,,,,,AKG,,,,,,,,,,,,,,,,,,,,,,,
,,,,,,,,Vossloh,,,,,,,,,,,,,,,,,,,,,,,
,,,,,,,,Levi\'s,,,,,,,,,,,,,,,,,,,,,,,
,,,,,,,,Gastroback,,,,,,,,,,,,,,,,,,,,,,,
,,,,,,,,test,,,,,,,,,,,,,,,,,,,,,,,
,,,,,,,,On Night,,,,,,,,,,,,,,,,,,,,,,,
,,,,,,,,Ziphona,,,,,,,,,,,,,,,,,,,,,,,
,,,,,,,,Faktio,,,,,,,,,,,,,,,,,,,,,,,
,,,,,,,,Deuter,,,,,,,,,,,,,,,,,,,,,,,
,,,,,,,,MSI,,,,,,,,,,,,,,,,,,,,,,,
,,,,,,,,TCM,,,,,,,,,,,,,,,,,,,,,,,
,,,,,,,,Condor,,,,,,,,,,,,,,,,,,,,,,,
,,,,,,,,Oynarox,,,,,,,,,,,,,,,,,,,,,,,
,,,,,,,,Bamix,,,,,,,,,,,,,,,,,,,,,,,
,,,,,,,,Unold,,,,,,,,,,,,,,,,,,,,,,,
,,,,,,,,Aldi,,,,,,,,,,,,,,,,,,,,,,,
,,,,,,,,Pioneer,,,,,,,,,,,,,,,,,,,,,,,
,,,,,,,,Gritzner,,,,,,,,,,,,,,,,,,,,,,,
,,,,,,,,Pfaff,,,,,,,,,,,,,,,,,,,,,,,
,,,,,,,,KaVo,,,,,,,,,,,,,,,,,,,,,,,
,,,,,,,,Prestige,,,,,,,,,,,,,,,,,,,,,,,
,,,,,,,,Samson,,,,,,,,,,,,,,,,,,,,,,,
,,,,,,,,Sommer,,,,,,,,,,,,,,,,,,,,,,,
,,,,,,,,B1,,,,,,,,,,,,,,,,,,,,,,,
,,,,,,,,Tesla,,,,,,,,,,,,,,,,,,,,,,,
,,,,,,,,Marantz,,,,,,,,,,,,,,,,,,,,,,,
,,,,,,,,Marshall,,,,,,,,,,,,,,,,,,,,,,,
,,,,,,,,Xiaomi,,,,,,,,,,,,,,,,,,,,,,,
,,,,,,,,Millitzer C,,,,,,,,,,,,,,,,,,,,,,,
,,,,,,,,Nescafé,,,,,,,,,,,,,,,,,,,,,,,
,,,,,,,,Swissonic,,,,,,,,,,,,,,,,,,,,,,,
,,,,,,,,Pentacon,,,,,,,,,,,,,,,,,,,,,,,
,,,,,,,,Gembrid,,,,,,,,,,,,,,,,,,,,,,,
,,,,,,,,Worldtimer,,,,,,,,,,,,,,,,,,,,,,,
,,,,,,,,Parkside,,,,,,,,,,,,,,,,,,,,,,,
,,,,,,,,Minolta,,,,,,,,,,,,,,,,,,,,,,,
,,,,,,,,Carrier,,,,,,,,,,,,,,,,,,,,,,,
,,,,,,,,Roberts,,,,,,,,,,,,,,,,,,,,,,,
,,,,,,,,Loking,,,,,,,,,,,,,,,,,,,,,,,
,,,,,,,,Cloer,,,,,,,,,,,,,,,,,,,,,,,
,,,,,,,,Cromad,,,,,,,,,,,,,,,,,,,,,,,
,,,,,,,,Silvercrest,,,,,,,,,,,,,,,,,,,,,,,
,,,,,,,,compaq,,,,,,,,,,,,,,,,,,,,,,,
,,,,,,,,ESGE,,,,,,,,,,,,,,,,,,,,,,,
,,,,,,,,Razer,,,,,,,,,,,,,,,,,,,,,,,
,,,,,,,,Heidemann,,,,,,,,,,,,,,,,,,,,,,,
,,,,,,,,Hilti,,,,,,,,,,,,,,,,,,,,,,,
,,,,,,,,KTM,,,,,,,,,,,,,,,,,,,,,,,
,,,,,,,,Stöckli,,,,,,,,,,,,,,,,,,,,,,,
,,,,,,,,Orion,,,,,,,,,,,,,,,,,,,,,,,
,,,,,,,,Pimkie,,,,,,,,,,,,,,,,,,,,,,,
,,,,,,,,Renkforce,,,,,,,,,,,,,,,,,,,,,,,
,,,,,,,,Fif,,,,,,,,,,,,,,,,,,,,,,,
,,,,,,,,Technics,,,,,,,,,,,,,,,,,,,,,,,
,,,,,,,,Hawe,,,,,,,,,,,,,,,,,,,,,,,
,,,,,,,,arendo,,,,,,,,,,,,,,,,,,,,,,,
,,,,,,,,macally,,,,,,,,,,,,,,,,,,,,,,,
,,,,,,,,SwissBrands,,,,,,,,,,,,,,,,,,,,,,,
,,,,,,,,Grossag,,,,,,,,,,,,,,,,,,,,,,,
,,,,,,,,Belcanto,,,,,,,,,,,,,,,,,,,,,,,
,,,,,,,,AFK Germany,,,,,,,,,,,,,,,,,,,,,,,
,,,,,,,,Korona,,,,,,,,,,,,,,,,,,,,,,,
,,,,,,,,VEB Elektroinstallation Oberlind,,,,,,,,,,,,,,,,,,,,,,,
,,,,,,,,Efbe Elektrogeräte GmbH,,,,,,,,,,,,,,,,,,,,,,,
,,,,,,,,Harman-Kardon,,,,,,,,,,,,,,,,,,,,,,,
,,,,,,,,Shimo,,,,,,,,,,,,,,,,,,,,,,,
,,,,,,,,Parrot,,,,,,,,,,,,,,,,,,,,,,,
,,,,,,,,Petra,,,,,,,,,,,,,,,,,,,,,,,
,,,,,,,,BEEM,,,,,,,,,,,,,,,,,,,,,,,
,,,,,,,,Denon,,,,,,,,,,,,,,,,,,,,,,,
,,,,,,,,Ideenshop,,,,,,,,,,,,,,,,,,,,,,,
,,,,,,,,KHG,,,,,,,,,,,,,,,,,,,,,,,
,,,,,,,,Optima,,,,,,,,,,,,,,,,,,,,,,,
,,,,,,,,Naumann,,,,,,,,,,,,,,,,,,,,,,,
,,,,,,,,AIWA,,,,,,,,,,,,,,,,,,,,,,,
,,,,,,,,Tefal,,,,,,,,,,,,,,,,,,,,,,,
,,,,,,,,Top Clean,,,,,,,,,,,,,,,,,,,,,,,
,,,,,,,,Airbox,,,,,,,,,,,,,,,,,,,,,,,
,,,,,,,,Playbear,,,,,,,,,,,,,,,,,,,,,,,
,,,,,,,,Brio,,,,,,,,,,,,,,,,,,,,,,,
,,,,,,,,Mulinex,,,,,,,,,,,,,,,,,,,,,,,
,,,,,,,,Kieler Manufaktur,,,,,,,,,,,,,,,,,,,,,,,
,,,,,,,,TIP,,,,,,,,,,,,,,,,,,,,,,,
,,,,,,,,Komet,,,,,,,,,,,,,,,,,,,,,,,
,,,,,,,,Wahl,,,,,,,,,,,,,,,,,,,,,,,
,,,,,,,,Ciatronic,,,,,,,,,,,,,,,,,,,,,,,
,,,,,,,,Cowon,,,,,,,,,,,,,,,,,,,,,,,
,,,,,,,,Bialetti,,,,,,,,,,,,,,,,,,,,,,,
,,,,,,,,Trust,,,,,,,,,,,,,,,,,,,,,,,
,,,,,,,,DDR,,,,,,,,,,,,,,,,,,,,,,,
,,,,,,,,Reloop,,,,,,,,,,,,,,,,,,,,,,,
,,,,,,,,fitmix,,,,,,,,,,,,,,,,,,,,,,,
,,,,,,,,Rolleiflex,,,,,,,,,,,,,,,,,,,,,,,
,,,,,,,,TechniSat,,,,,,,,,,,,,,,,,,,,,,,
,,,,,,,,Shino,,,,,,,,,,,,,,,,,,,,,,,
,,,,,,,,JVC,,,,,,,,,,,,,,,,,,,,,,,
,,,,,,,,Fisher,,,,,,,,,,,,,,,,,,,,,,,
,,,,,,,,Fissler,,,,,,,,,,,,,,,,,,,,,,,
,,,,,,,,EMAG,,,,,,,,,,,,,,,,,,,,,,,
,,,,,,,,Vaillant,,,,,,,,,,,,,,,,,,,,,,,
,,,,,,,,Wolf Garten,,,,,,,,,,,,,,,,,,,,,,,
,,,,,,,,HSM,,,,,,,,,,,,,,,,,,,,,,,
,,,,,,,,Steinel,,,,,,,,,,,,,,,,,,,,,,,
,,,,,,,,Digital,,,,,,,,,,,,,,,,,,,,,,,
,,,,,,,,Wheeler,,,,,,,,,,,,,,,,,,,,,,,
,,,,,,,,Obscure,,,,,,,,,,,,,,,,,,,,,,,
,,,,,,,,TOP,,,,,,,,,,,,,,,,,,,,,,,
,,,,,,,,Levono-Thinkpad,,,,,,,,,,,,,,,,,,,,,,,
,,,,,,,,Alpina,,,,,,,,,,,,,,,,,,,,,,,
,,,,,,,,EKO,,,,,,,,,,,,,,,,,,,,,,,
,,,,,,,,CTEK,,,,,,,,,,,,,,,,,,,,,,,
,,,,,,,,Pearl,,,,,,,,,,,,,,,,,,,,,,,
,,,,,,,,Veritas,,,,,,,,,,,,,,,,,,,,,,,
,,,,,,,,Switch On,,,,,,,,,,,,,,,,,,,,,,,
,,,,,,,,VEB Messgerätewerk Zwönitz,,,,,,,,,,,,,,,,,,,,,,,
,,,,,,,,Tascam,,,,,,,,,,,,,,,,,,,,,,,
,,,,,,,,CSM,,,,,,,,,,,,,,,,,,,,,,,
,,,,,,,,Rossmann Ideenwelt,,,,,,,,,,,,,,,,,,,,,,,
,,,,,,,,Tempi Tec,,,,,,,,,,,,,,,,,,,,,,,
,,,,,,,,Ningbo Jiulin Electronics,,,,,,,,,,,,,,,,,,,,,,,
,,,,,,,,Fabas Luce,,,,,,,,,,,,,,,,,,,,,,,
,,,,,,,,VEB Phonotechnik Pirna/Zittau,,,,,,,,,,,,,,,,,,,,,,,
,,,,,,,,Wodtke,,,,,,,,,,,,,,,,,,,,,,,
,,,,,,,,Solac,,,,,,,,,,,,,,,,,,,,,,,
,,,,,,,,Largo,,,,,,,,,,,,,,,,,,,,,,,
,,,,,,,,ELV Elektronik,,,,,,,,,,,,,,,,,,,,,,,
,,,,,,,,Montreal,,,,,,,,,,,,,,,,,,,,,,,
,,,,,,,,InFocus,,,,,,,,,,,,,,,,,,,,,,,
,,,,,,,,Top Craft,,,,,,,,,,,,,,,,,,,,,,,
,,,,,,,,Genesis,,,,,,,,,,,,,,,,,,,,,,,
,,,,,,,,Efalock Professional Tools,,,,,,,,,,,,,,,,,,,,,,,
,,,,,,,,Buthe,,,,,,,,,,,,,,,,,,,,,,,
,,,,,,,,Doogee,,,,,,,,,,,,,,,,,,,,,,,
,,,,,,,,Söhab,,,,,,,,,,,,,,,,,,,,,,,
,,,,,,,,VEB Elektrogerätewerk Suhl,,,,,,,,,,,,,,,,,,,,,,,
,,,,,,,,HGL,,,,,,,,,,,,,,,,,,,,,,,
,,,,,,,,Ellrona,,,,,,,,,,,,,,,,,,,,,,,
,,,,,,,,Jolla,,,,,,,,,,,,,,,,,,,,,,,
,,,,,,,,ToLife,,,,,,,,,,,,,,,,,,,,,,,
,,,,,,,,Point-Of-View,,,,,,,,,,,,,,,,,,,,,,,
,,,,,,,,Viessmann,,,,,,,,,,,,,,,,,,,,,,,
,,,,,,,,Herrnhut,,,,,,,,,,,,,,,,,,,,,,,
,,,,,,,,VEB Fernmeldewerk Nordhausen,,,,,,,,,,,,,,,,,,,,,,,
,,,,,,,,Mission,,,,,,,,,,,,,,,,,,,,,,,
,,,,,,,,Cateye,,,,,,,,,,,,,,,,,,,,,,,
,,,,,,,,Commodore,,,,,,,,,,,,,,,,,,,,,,,
,,,,,,,,EWT,,,,,,,,,,,,,,,,,,,,,,,
,,,,,,,,VEB Kombinat Elektromaschinenbau Dresden,,,,,,,,,,,,,,,,,,,,,,,
,,,,,,,,ONE,,,,,,,,,,,,,,,,,,,,,,,
,,,,,,,,CMX,,,,,,,,,,,,,,,,,,,,,,,
,,,,,,,,Huanyang,,,,,,,,,,,,,,,,,,,,,,,
,,,,,,,,Exquisit,,,,,,,,,,,,,,,,,,,,,,,
,,,,,,,,Welltech,,,,,,,,,,,,,,,,,,,,,,,
,,,,,,,,Mazda,,,,,,,,,,,,,,,,,,,,,,,
,,,,,,,,Hendi,,,,,,,,,,,,,,,,,,,,,,,
,,,,,,,,Crestano,,,,,,,,,,,,,,,,,,,,,,,
,,,,,,,,Liss,,,,,,,,,,,,,,,,,,,,,,,
,,,,,,,,Medisana,,,,,,,,,,,,,,,,,,,,,,,
,,,,,,,,CASA Deco,,,,,,,,,,,,,,,,,,,,,,,
,,,,,,,,Verda,,,,,,,,,,,,,,,,,,,,,,,
,,,,,,,,Genie,,,,,,,,,,,,,,,,,,,,,,,
,,,,,,,,VEB Elektrogerätewerk Suhl,,,,,,,,,,,,,,,,,,,,,,,
,,,,,,,,Rexel,,,,,,,,,,,,,,,,,,,,,,,
,,,,,,,,JayTech,,,,,,,,,,,,,,,,,,,,,,,
,,,,,,,,Sonoro,,,,,,,,,,,,,,,,,,,,,,,
,,,,,,,,Vivanco,,,,,,,,,,,,,,,,,,,,,,,
,,,,,,,,Yookidoo,,,,,,,,,,,,,,,,,,,,,,,
,,,,,,,,Zotac,,,,,,,,,,,,,,,,,,,,,,,
,,,,,,,,VEB Funkwerk Zittau,,,,,,,,,,,,,,,,,,,,,,,
,,,,,,,,Unitra,,,,,,,,,,,,,,,,,,,,,,,
,,,,,,,,Creative,,,,,,,,,,,,,,,,,,,,,,,
,,,,,,,,Kurby,,,,,,,,,,,,,,,,,,,,,,,
,,,,,,,,Consul,,,,,,,,,,,,,,,,,,,,,,,
,,,,,,,,HeiTech,,,,,,,,,,,,,,,,,,,,,,,
,,,,,,,,VEB Stern-Radio Berlin,,,,,,,,,,,,,,,,,,,,,,,
,,,,,,,,Graef,,,,,,,,,,,,,,,,,,,,,,,
,,,,,,,,aQuip,,,,,,,,,,,,,,,,,,,,,,,
,,,,,,,,Zoom Corporation,,,,,,,,,,,,,,,,,,,,,,,
,,,,,,,,Bones,,,,,,,,,,,,,,,,,,,,,,,
,,,,,,,,Piko,,,,,,,,,,,,,,,,,,,,,,,
,,,,,,,,SuperTech,,,,,,,,,,,,,,,,,,,,,,,
,,,,,,,,Swatch,,,,,,,,,,,,,,,,,,,,,,,
,,,,,,,,Tepro,,,,,,,,,,,,,,,,,,,,,,,
,,,,,,,,Fellowes,,,,,,,,,,,,,,,,,,,,,,,
,,,,,,,,ProfiCook,,,,,,,,,,,,,,,,,,,,,,,
,,,,,,,,United Office,,,,,,,,,,,,,,,,,,,,,,,
,,,,,,,,Dario,,,,,,,,,,,,,,,,,,,,,,,
,,,,,,,,Faema,,,,,,,,,,,,,,,,,,,,,,,
,,,,,,,,Beafon,,,,,,,,,,,,,,,,,,,,,,,
,,,,,,,,Okano,,,,,,,,,,,,,,,,,,,,,,,
,,,,,,,,Centor Warenhandels GmbH,,,,,,,,,,,,,,,,,,,,,,,
,,,,,,,,VEB Rechentechnik Meiningen,,,,,,,,,,,,,,,,,,,,,,,
,,,,,,,,Terra,,,,,,,,,,,,,,,,,,,,,,,
,,,,,,,,Hanseatic,,,,,,,,,,,,,,,,,,,,,,,
,,,,,,,,VEB Kamera- und Kinowerke Dresden,,,,,,,,,,,,,,,,,,,,,,,
,,,,,,,,Weltbild,,,,,,,,,,,,,,,,,,,,,,,
,,,,,,,,Amway,,,,,,,,,,,,,,,,,,,,,,,
,,,,,,,,Odys,,,,,,,,,,,,,,,,,,,,,,,
,,,,,,,,TFA Dostmann,,,,,,,,,,,,,,,,,,,,,,,
,,,,,,,,Intewa,,,,,,,,,,,,,,,,,,,,,,,
,,,,,,,,Reer,,,,,,,,,,,,,,,,,,,,,,,
,,,,,,,,Stagg,,,,,,,,,,,,,,,,,,,,,,,
,,,,,,,,Auerswald,,,,,,,,,,,,,,,,,,,,,,,
,,,,,,,,VEB Sternradio Sonneberg,,,,,,,,,,,,,,,,,,,,,,,
,,,,,,,,Dörrex,,,,,,,,,,,,,,,,,,,,,,,
,,,,,,,,Roadstar,,,,,,,,,,,,,,,,,,,,,,,
,,,,,,,,PetPorte,,,,,,,,,,,,,,,,,,,,,,,
,,,,,,,,Syma,,,,,,,,,,,,,,,,,,,,,,,
,,,,,,,,Moredig,,,,,,,,,,,,,,,,,,,,,,,
,,,,,,,,Navigon,,,,,,,,,,,,,,,,,,,,,,,
,,,,,,,,Levono,,,,,,,,,,,,,,,,,,,,,,,
,,,,,,,,Herenthal,,,,,,,,,,,,,,,,,,,,,,,
,,,,,,,,WiMo,,,,,,,,,,,,,,,,,,,,,,,
,,,,,,,,Medicate,,,,,,,,,,,,,,,,,,,,,,,
,,,,,,,,Opel,,,,,,,,,,,,,,,,,,,,,,,
,,,,,,,,Skil,,,,,,,,,,,,,,,,,,,,,,,
,,,,,,,,Soul,,,,,,,,,,,,,,,,,,,,,,,
,,,,,,,,Firefly,,,,,,,,,,,,,,,,,,,,,,,
,,,,,,,,Reflexion,,,,,,,,,,,,,,,,,,,,,,,
,,,,,,,,Globus Holding,,,,,,,,,,,,,,,,,,,,,,,
,,,,,,,,Petermann,,,,,,,,,,,,,,,,,,,,,,,
,,,,,,,,Teamtronic,,,,,,,,,,,,,,,,,,,,,,,
,,,,,,,,Fabiani,,,,,,,,,,,,,,,,,,,,,,,
,,,,,,,,VEB Robotron,,,,,,,,,,,,,,,,,,,,,,,
,,,,,,,,Sega,,,,,,,,,,,,,,,,,,,,,,,
,,,,,,,,Oukitel,,,,,,,,,,,,,,,,,,,,,,,
,,,,,,,,Salco,,,,,,,,,,,,,,,,,,,,,,,
,,,,,,,,Koss,,,,,,,,,,,,,,,,,,,,,,,
,,,,,,,,Sansui,,,,,,,,,,,,,,,,,,,,,,,
,,,,,,,,Peekton,,,,,,,,,,,,,,,,,,,,,,,
,,,,,,,,NUK,,,,,,,,,,,,,,,,,,,,,,,
,,,,,,,,Arnica,,,,,,,,,,,,,,,,,,,,,,,
,,,,,,,,Numark,,,,,,,,,,,,,,,,,,,,,,,
,,,,,,,,Mustek,,,,,,,,,,,,,,,,,,,,,,,
,,,,,,,,Scott,,,,,,,,,,,,,,,,,,,,,,,
,,,,,,,,Ansmann,,,,,,,,,,,,,,,,,,,,,,,
,,,,,,,,TEC STAR,,,,,,,,,,,,,,,,,,,,,,,
,,,,,,,,Ciatronic,,,,,,,,,,,,,,,,,,,,,,,
,,,,,,,,Statron,,,,,,,,,,,,,,,,,,,,,,,
,,,,,,,,Breuer,,,,,,,,,,,,,,,,,,,,,,,
,,,,,,,,TEC-STAR,,,,,,,,,,,,,,,,,,,,,,,
,,,,,,,,ESI,,,,,,,,,,,,,,,,,,,,,,,
,,,,,,,,Prominent,,,,,,,,,,,,,,,,,,,,,,,
,,,,,,,,RG 28,,,,,,,,,,,,,,,,,,,,,,,
,,,,,,,,rapid,,,,,,,,,,,,,,,,,,,,,,,
,,,,,,,,X-Tiger,,,,,,,,,,,,,,,,,,,,,,,
,,,,,,,,Drucker,,,,,,,,,,,,,,,,,,,,,,,
,,,,,,,,Leitz,,,,,,,,,,,,,,,,,,,,,,,
,,,,,,,,Peugeot,,,,,,,,,,,,,,,,,,,,,,,
,,,,,,,,Scaleman,,,,,,,,,,,,,,,,,,,,,,,
,,,,,,,,Hisense,,,,,,,,,,,,,,,,,,,,,,,
,,,,,,,,Amysa,,,,,,,,,,,,,,,,,,,,,,,
,,,,,,,,Konica Minolta,,,,,,,,,,,,,,,,,,,,,,,
,,,,,,,,Levono,,,,,,,,,,,,,,,,,,,,,,,
,,,,,,,,Pinguin,,,,,,,,,,,,,,,,,,,,,,,
,,,,,,,,Lifetec,,,,,,,,,,,,,,,,,,,,,,,
,,,,,,,,BQ,,,,,,,,,,,,,,,,,,,,,,,
,,,,,,,,Marquis,,,,,,,,,,,,,,,,,,,,,,,
,,,,,,,,Kosmos,,,,,,,,,,,,,,,,,,,,,,,
,,,,,,,,Noris,,,,,,,,,,,,,,,,,,,,,,,
,,,,,,,,Xantrex,,,,,,,,,,,,,,,,,,,,,,,
,,,,,,,,Caltronic,,,,,,,,,,,,,,,,,,,,,,,
,,,,,,,,Soewel,,,,,,,,,,,,,,,,,,,,,,,
,,,,,,,,Packard Bell,,,,,,,,,,,,,,,,,,,,,,,
,,,,,,,,Waterpik,,,,,,,,,,,,,,,,,,,,,,,
,,,,,,,,Life,,,,,,,,,,,,,,,,,,,,,,,
,,,,,,,,Vestax,,,,,,,,,,,,,,,,,,,,,,,
,,,,,,,,SpeaKa,,,,,,,,,,,,,,,,,,,,,,,
,,,,,,,,Meister Automatic,,,,,,,,,,,,,,,,,,,,,,,
,,,,,,,,RG 25,,,,,,,,,,,,,,,,,,,,,,,
,,,,,,,,Thomann,,,,,,,,,,,,,,,,,,,,,,,
,,,,,,,,RG 28,,,,,,,,,,,,,,,,,,,,,,,
,,,,,,,,Zenit,,,,,,,,,,,,,,,,,,,,,,,
,,,,,,,,Kello,,,,,,,,,,,,,,,,,,,,,,,
,,,,,,,,Provition,,,,,,,,,,,,,,,,,,,,,,,
,,,,,,,,Allen &amp,,,,,,,,,,,,,,,,,,,,,,,
,,,,,,,,Goal Zero,,,,,,,,,,,,,,,,,,,,,,,
,,,,,,,,Tschibo,,,,,,,,,,,,,,,,,,,,,,,
,,,,,,,,Sonnheiser,,,,,,,,,,,,,,,,,,,,,,,
,,,,,,,,Monstertronic,,,,,,,,,,,,,,,,,,,,,,,
,,,,,,,,bifinett,,,,,,,,,,,,,,,,,,,,,,,
,,,,,,,,Coolix,,,,,,,,,,,,,,,,,,,,,,,
,,,,,,,,myToys,,,,,,,,,,,,,,,,,,,,,,,
,,,,,,,,Nubert,,,,,,,,,,,,,,,,,,,,,,,
,,,,,,,,Turmix,,,,,,,,,,,,,,,,,,,,,,,
,,,,,,,,Skullcandy,,,,,,,,,,,,,,,,,,,,,,,
,,,,,,,,Livarno Lux,,,,,,,,,,,,,,,,,,,,,,,
,,,,,,,,United Ears,,,,,,,,,,,,,,,,,,,,,,,
,,,,,,,,Toyota,,,,,,,,,,,,,,,,,,,,,,,
,,,,,,,,Nordmende,,,,,,,,,,,,,,,,,,,,,,,
,,,,,,,,Atmel,,,,,,,,,,,,,,,,,,,,,,,
,,,,,,,,Humanware,,,,,,,,,,,,,,,,,,,,,,,
,,,,,,,,KRK,,,,,,,,,,,,,,,,,,,,,,,
,,,,,,,,OK.,,,,,,,,,,,,,,,,,,,,,,,
,,,,,,,,Nemaxx,,,,,,,,,,,,,,,,,,,,,,,
,,,,,,,,Chicco,,,,,,,,,,,,,,,,,,,,,,,
,,,,,,,,TopRace,,,,,,,,,,,,,,,,,,,,,,,
,,,,,,,,Magnetek,,,,,,,,,,,,,,,,,,,,,,,
,,,,,,,,Mad Catz R.A.T.,,,,,,,,,,,,,,,,,,,,,,,
,,,,,,,,Prophete,,,,,,,,,,,,,,,,,,,,,,,
,,,,,,,,Rheita,,,,,,,,,,,,,,,,,,,,,,,
,,,,,,,,Gabriele 100,,,,,,,,,,,,,,,,,,,,,,,
,,,,,,,,HyperX,,,,,,,,,,,,,,,,,,,,,,,
,,,,,,,,MCM,,,,,,,,,,,,,,,,,,,,,,,
,,,,,,,,Cilio,,,,,,,,,,,,,,,,,,,,,,,
,,,,,,,,Trotec,,,,,,,,,,,,,,,,,,,,,,,
,,,,,,,,My Sports,,,,,,,,,,,,,,,,,,,,,,,
,,,,,,,,Sunrise,,,,,,,,,,,,,,,,,,,,,,,
,,,,,,,,Cube,,,,,,,,,,,,,,,,,,,,,,,
,,,,,,,,Wass Electronics,,,,,,,,,,,,,,,,,,,,,,,
,,,,,,,,Clear Max,,,,,,,,,,,,,,,,,,,,,,,
,,,,,,,,Sherwood,,,,,,,,,,,,,,,,,,,,,,,
,,,,,,,,TrekStor,,,,,,,,,,,,,,,,,,,,,,,
,,,,,,,,Motobecane,,,,,,,,,,,,,,,,,,,,,,,
,,,,,,,,Soennecken,,,,,,,,,,,,,,,,,,,,,,,
,,,,,,,,Hannspree,,,,,,,,,,,,,,,,,,,,,,,
,,,,,,,,NAD,,,,,,,,,,,,,,,,,,,,,,,
,,,,,,,,SHOV,,,,,,,,,,,,,,,,,,,,,,,
,,,,,,,,DBK,,,,,,,,,,,,,,,,,,,,,,,
,,,,,,,,Elta,,,,,,,,,,,,,,,,,,,,,,,
,,,,,,,,TP-Link,,,,,,,,,,,,,,,,,,,,,,,
,,,,,,,,ermina,,,,,,,,,,,,,,,,,,,,,,,
,,,,,,,,DKK,,,,,,,,,,,,,,,,,,,,,,,
,,,,,,,,Truma Gerätetechnik,,,,,,,,,,,,,,,,,,,,,,,
,,,,,,,,Mobistel,,,,,,,,,,,,,,,,,,,,,,,
,,,,,,,,Eufonia,,,,,,,,,,,,,,,,,,,,,,,
,,,,,,,,Yakumo,,,,,,,,,,,,,,,,,,,,,,,
,,,,,,,,WorWoder,,,,,,,,,,,,,,,,,,,,,,,
,,,,,,,,VictSing,,,,,,,,,,,,,,,,,,,,,,,
,,,,,,,,Andicom,,,,,,,,,,,,,,,,,,,,,,,
,,,,,,,,Seagull,,,,,,,,,,,,,,,,,,,,,,,
,,,,,,,,SLI,,,,,,,,,,,,,,,,,,,,,,,
,,,,,,,,Crown,,,,,,,,,,,,,,,,,,,,,,,
,,,,,,,,Cebot,,,,,,,,,,,,,,,,,,,,,,,
,,,,,,,,Hermle,,,,,,,,,,,,,,,,,,,,,,,
,,,,,,,,Shark,,,,,,,,,,,,,,,,,,,,,,,
,,,,,,,,JTC,,,,,,,,,,,,,,,,,,,,,,,
,,,,,,,,Artec,,,,,,,,,,,,,,,,,,,,,,,
,,,,,,,,ermila,,,,,,,,,,,,,,,,,,,,,,,
,,,,,,,,Pierre Cardin,,,,,,,,,,,,,,,,,,,,,,,
,,,,,,,,unbekannt,,,,,,,,,,,,,,,,,,,,,,,
,,,,,,,,unbekannt,,,,,,,,,,,,,,,,,,,,,,,
,,,,,,,,keine,,,,,,,,,,,,,,,,,,,,,,,
,,,,,,,,unbekannt,,,,,,,,,,,,,,,,,,,,,,,
,,,,,,,,unbekannt,,,,,,,,,,,,,,,,,,,,,,,
,,,,,,,,nicht bekannt,,,,,,,,,,,,,,,,,,,,,,,
,,,,,,,,Plantronics,,,,,,,,,,,,,,,,,,,,,,,
,,,,,,,,nicht bekannt,,,,,,,,,,,,,,,,,,,,,,,
,,,,,,,,nicht bekannt,,,,,,,,,,,,,,,,,,,,,,,
,,,,,,,,nicht bekannt,,,,,,,,,,,,,,,,,,,,,,,
,,,,,,,,unbekannt,,,,,,,,,,,,,,,,,,,,,,,
,,,,,,,,ohne,,,,,,,,,,,,,,,,,,,,,,,
,,,,,,,,nicht bekannt,,,,,,,,,,,,,,,,,,,,,,,
,,,,,,,,MDA,,,,,,,,,,,,,,,,,,,,,,,
,,,,,,,,ohne,,,,,,,,,,,,,,,,,,,,,,,
,,,,,,,,Tassimo,,,,,,,,,,,,,,,,,,,,,,,
,,,,,,,,Bostik,,,,,,,,,,,,,,,,,,,,,,,
,,,,,,,,ebm-Pabst,,,,,,,,,,,,,,,,,,,,,,,
,,,,,,,,GHD,,,,,,,,,,,,,,,,,,,,,,,
,,,,,,,,Quantis,,,,,,,,,,,,,,,,,,,,,,,
,,,,,,,,Wolf,,,,,,,,,,,,,,,,,,,,,,,
,,,,,,,,Hörbert,,,,,,,,,,,,,,,,,,,,,,,
,,,,,,,,ghd,,,,,,,,,,,,,,,,,,,,,,,
,,,,,,,,NutriBullet,,,,,,,,,,,,,,,,,,,,,,,
,,,,,,,,MAUL,,,,,,,,,,,,,,,,,,,,,,,
,,,,,,,,PHillips,,,,,,,,,,,,,,,,,,,,,,,
,,,,,,,,WOFI Wortmann &amp,,,,,,,,,,,,,,,,,,,,,,,
,,,,,,,,KitchenAid,,,,,,,,,,,,,,,,,,,,,,,
,,,,,,,,Solton,,,,,,,,,,,,,,,,,,,,,,,
,,,,,,,,Solton,,,,,,,,,,,,,,,,,,,,,,,
,,,,,,,,Lenco,,,,,,,,,,,,,,,,,,,,,,,
,,,,,,,,Bela Design,,,,,,,,,,,,,,,,,,,,,,,
,,,,,,,,Phillips,,,,,,,,,,,,,,,,,,,,,,,
,,,,,,,,Dataflash,,,,,,,,,,,,,,,,,,,,,,,
,,,,,,,,Aerolatte,,,,,,,,,,,,,,,,,,,,,,,
,,,,,,,,Casada,,,,,,,,,,,,,,,,,,,,,,,
,,,,,,,,Team International,,,,,,,,,,,,,,,,,,,,,,,
,,,,,,,,amplicomms,,,,,,,,,,,,,,,,,,,,,,,
,,,,,,,,Soundwave,,,,,,,,,,,,,,,,,,,,,,,
,,,,,,,,Quelle,,,,,,,,,,,,,,,,,,,,,,,
,,,,,,,,Techno,,,,,,,,,,,,,,,,,,,,,,,
,,,,,,,,Elephone,,,,,,,,,,,,,,,,,,,,,,,
,,,,,,,,Schwaiger,,,,,,,,,,,,,,,,,,,,,,,
,,,,,,,,California Audio Labs,,,,,,,,,,,,,,,,,,,,,,,
,,,,,,,,Digihome,,,,,,,,,,,,,,,,,,,,,,,
,,,,,,,,Magnat,,,,,,,,,,,,,,,,,,,,,,,
,,,,,,,,Clementoni,,,,,,,,,,,,,,,,,,,,,,,
,,,,,,,,Emerio,,,,,,,,,,,,,,,,,,,,,,,
,,,,,,,,eQ-3,,,,,,,,,,,,,,,,,,,,,,,
,,,,,,,,Youhua Technology,,,,,,,,,,,,,,,,,,,,,,,
,,,,,,,,TZS,,,,,,,,,,,,,,,,,,,,,,,
,,,,,,,,Teleco,,,,,,,,,,,,,,,,,,,,,,,
,,,,,,,,Schaudt,,,,,,,,,,,,,,,,,,,,,,,
,,,,,,,,BENQ,,,,,,,,,,,,,,,,,,,,,,,
,,,,,,,,Aspa,,,,,,,,,,,,,,,,,,,,,,,
,,,,,,,,Samsonite,,,,,,,,,,,,,,,,,,,,,,,
,,,,,,,,Funai,,,,,,,,,,,,,,,,,,,,,,,
,,,,,,,,VEB Wohnraumleuchten,,,,,,,,,,,,,,,,,,,,,,,
,,,,,,,,HiVi,,,,,,,,,,,,,,,,,,,,,,,
,,,,,,,,Daewoo,,,,,,,,,,,,,,,,,,,,,,,
,,,,,,,,Praktiker,,,,,,,,,,,,,,,,,,,,,,,
,,,,,,,,Ritto,,,,,,,,,,,,,,,,,,,,,,,
,,,,,,,,VEB Elbtalwerk Heidenau,,,,,,,,,,,,,,,,,,,,,,,
,,,,,,,,Saitek,,,,,,,,,,,,,,,,,,,,,,,
,,,,,,,,Mebus,,,,,,,,,,,,,,,,,,,,,,,
,,,,,,,,Beats,,,,,,,,,,,,,,,,,,,,,,,
,,,,,,,,Anet,,,,,,,,,,,,,,,,,,,,,,,
,,,,,,,,Rema,,,,,,,,,,,,,,,,,,,,,,,
,,,,,,,,AL-KO,,,,,,,,,,,,,,,,,,,,,,,
,,,,,,,,Amazon,,,,,,,,,,,,,,,,,,,,,,,
,,,,,,,,E-Bench,,,,,,,,,,,,,,,,,,,,,,,
,,,,,,,,WMW VEB Elektrowerkzeugbau Eibenstock,,,,,,,,,,,,,,,,,,,,,,,
,,,,,,,,Etirel,,,,,,,,,,,,,,,,,,,,,,,
,,,,,,,,GloboLighting,,,,,,,,,,,,,,,,,,,,,,,
,,,,,,,,Hoberg,,,,,,,,,,,,,,,,,,,,,,,
,,,,,,,,DS Produkte,,,,,,,,,,,,,,,,,,,,,,,
,,,,,,,,HAGEKA,,,,,,,,,,,,,,,,,,,,,,,
,,,,,,,,Alaska,,,,,,,,,,,,,,,,,,,,,,,
,,,,,,,,ETA,,,,,,,,,,,,,,,,,,,,,,,
,,,,,,,,AXA,,,,,,,,,,,,,,,,,,,,,,,
,,,,,,,,Ortlieb,,,,,,,,,,,,,,,,,,,,,,,
,,,,,,,,EGS,,,,,,,,,,,,,,,,,,,,,,,
,,,,,,,,WMW VEB Werkzeuge Schmalkalden,,,,,,,,,,,,,,,,,,,,,,,
,,,,,,,,rike electronics,,,,,,,,,,,,,,,,,,,,,,,
,,,,,,,,CroLED,,,,,,,,,,,,,,,,,,,,,,,
,,,,,,,,VEB Mikromat Dresden,,,,,,,,,,,,,,,,,,,,,,,
,,,,,,,,Riccar,,,,,,,,,,,,,,,,,,,,,,,
,,,,,,,,Oing Ling,,,,,,,,,,,,,,,,,,,,,,,
,,,,,,,,Silvercrest,,,,,,,,,,,,,,,,,,,,,,,
,,,,,,,,???,,,,,,,,,,,,,,,,,,,,,,,
,,,,,,,,???,,,,,,,,,,,,,,,,,,,,,,,
,,,,,,,,Junghans,,,,,,,,,,,,,,,,,,,,,,,
,,,,,,,,Framework,,,,,,,,,,,,,,,,,,,,,,,
,,,,,,,,nicht bekannt,,,,,,,,,,,,,,,,,,,,,,,
,,,,,,,,nicht bekannt,,,,,,,,,,,,,,,,,,,,,,,
,,,,,,,,Omron,,,,,,,,,,,,,,,,,,,,,,,
,,,,,,,,Audioline,,,,,,,,,,,,,,,,,,,,,,,
,,,,,,,,Fresh ‘n Rebel,,,,,,,,,,,,,,,,,,,,,,,
,,,,,,,,Dr. Schutz,,,,,,,,,,,,,,,,,,,,,,,
,,,,,,,,Vaio,,,,,,,,,,,,,,,,,,,,,,,
,,,,,,,,PocoLine,,,,,,,,,,,,,,,,,,,,,,,
,,,,,,,,MPow,,,,,,,,,,,,,,,,,,,,,,,
,,,,,,,,Erika,,,,,,,,,,,,,,,,,,,,,,,
,,,,,,,,Rohnson,,,,,,,,,,,,,,,,,,,,,,,
,,,,,,,,Gaggia,,,,,,,,,,,,,,,,,,,,,,,
,,,,,,,,Cherry,,,,,,,,,,,,,,,,,,,,,,,
,,,,,,,,Mode Machines,,,,,,,,,,,,,,,,,,,,,,,
,,,,,,,,Dualit,,,,,,,,,,,,,,,,,,,,,,,
,,,,,,,,Zebra,,,,,,,,,,,,,,,,,,,,,,,
,,,,,,,,Brill,,,,,,,,,,,,,,,,,,,,,,,
,,,,,,,,Ciatronic,,,,,,,,,,,,,,,,,,,,,,,
,,,,,,,,Highscreen,,,,,,,,,,,,,,,,,,,,,,,
,,,,,,,,Kindermann,,,,,,,,,,,,,,,,,,,,,,,
,,,,,,,,Vitamix,,,,,,,,,,,,,,,,,,,,,,,
,,,,,,,,Genesis Lamp Corp.,,,,,,,,,,,,,,,,,,,,,,,
,,,,,,,,ohne,,,,,,,,,,,,,,,,,,,,,,,
,,,,,,,,Gourmetmaxx,,,,,,,,,,,,,,,,,,,,,,,
,,,,,,,,Waxiba,,,,,,,,,,,,,,,,,,,,,,,
,,,,,,,,ohne,,,,,,,,,,,,,,,,,,,,,,,
,,,,,,,,Schott,,,,,,,,,,,,,,,,,,,,,,,
,,,,,,,,Flexi Compact,,,,,,,,,,,,,,,,,,,,,,,
,,,,,,,,Sanitas,,,,,,,,,,,,,,,,,,,,,,,
,,,,,,,,Ankeruhr,,,,,,,,,,,,,,,,,,,,,,,
,,,,,,,,japanisch,,,,,,,,,,,,,,,,,,,,,,,
,,,,,,,,Yukai,,,,,,,,,,,,,,,,,,,,,,,
,,,,,,,,CMI,,,,,,,,,,,,,,,,,,,,,,,
,,,,,,,,BMW,,,,,,,,,,,,,,,,,,,,,,,
,,,,,,,,Model M,,,,,,,,,,,,,,,,,,,,,,,
,,,,,,,,Fenix,,,,,,,,,,,,,,,,,,,,,,,
,,,,,,,,arendo,,,,,,,,,,,,,,,,,,,,,,,
,,,,,,,,Steba,,,,,,,,,,,,,,,,,,,,,,,
,,,,,,,,BOB-Home,,,,,,,,,,,,,,,,,,,,,,,
,,,,,,,,DJI,,,,,,,,,,,,,,,,,,,,,,,
,,,,,,,,Christopeit Sport,,,,,,,,,,,,,,,,,,,,,,,
,,,,,,,,Greenworks,,,,,,,,,,,,,,,,,,,,,,,
,,,,,,,,arendo,,,,,,,,,,,,,,,,,,,,,,,
,,,,,,,,Erisin,,,,,,,,,,,,,,,,,,,,,,,
,,,,,,,,Soehnle,,,,,,,,,,,,,,,,,,,,,,,
,,,,,,,,Euracom,,,,,,,,,,,,,,,,,,,,,,,
,,,,,,,,CIATRONIC,,,,,,,,,,,,,,,,,,,,,,,
,,,,,,,,Silva-Schneider,,,,,,,,,,,,,,,,,,,,,,,
,,,,,,,,Schaub-Lorenz,,,,,,,,,,,,,,,,,,,,,,,
,,,,,,,,Eigenbau,,,,,,,,,,,,,,,,,,,,,,,
,,,,,,,,unbekannt,,,,,,,,,,,,,,,,,,,,,,,
,,,,,,,,Cufa,,,,,,,,,,,,,,,,,,,,,,,
,,,,,,,,Hubsan,,,,,,,,,,,,,,,,,,,,,,,
,,,,,,,,Lexor,,,,,,,,,,,,,,,,,,,,,,,
,,,,,,,,ADE,,,,,,,,,,,,,,,,,,,,,,,
,,,,,,,,Intersound,,,,,,,,,,,,,,,,,,,,,,,
,,,,,,,,ClassicLine,,,,,,,,,,,,,,,,,,,,,,,
,,,,,,,,Zaco,,,,,,,,,,,,,,,,,,,,,,,
,,,,,,,,Eumenia,,,,,,,,,,,,,,,,,,,,,,,
,,,,,,,,First Austria,,,,,,,,,,,,,,,,,,,,,,,
,,,,,,,,SMC,,,,,,,,,,,,,,,,,,,,,,,
,,,,,,,,Burgwächter,,,,,,,,,,,,,,,,,,,,,,,
,,,,,,,,Edeka,,,,,,,,,,,,,,,,,,,,,,,
,,,,,,,,UKICRA,,,,,,,,,,,,,,,,,,,,,,,
,,,,,,,,Woolworth,,,,,,,,,,,,,,,,,,,,,,,
,,,,,,,,Zazu,,,,,,,,,,,,,,,,,,,,,,,
,,,,,,,,elephas,,,,,,,,,,,,,,,,,,,,,,,
,,,,,,,,Labtec,,,,,,,,,,,,,,,,,,,,,,,
,,,,,,,,Marley,,,,,,,,,,,,,,,,,,,,,,,
,,,,,,,,Clatronik,,,,,,,,,,,,,,,,,,,,,,,
,,,,,,,,Hanniball,,,,,,,,,,,,,,,,,,,,,,,
,,,,,,,,R.I.P.,,,,,,,,,,,,,,,,,,,,,,,
,,,,,,,,Minn Kota,,,,,,,,,,,,,,,,,,,,,,,
